\relax 
\citation{Falkenberg2012}
\@writefile{toc}{\contentsline {chapter}{\numberline {3}Overall assessment}{17}}
\@writefile{lof}{\addvspace {10\p@ }}
\@writefile{lot}{\addvspace {10\p@ }}
\@writefile{toc}{\contentsline {section}{\numberline {3.1}Conclusions}{17}}
\@writefile{toc}{\contentsline {section}{\numberline {3.2}Is natural recovery in Skagerrak still possible?}{17}}
\@writefile{toc}{\contentsline {section}{\numberline {3.3}Where to go from here...}{18}}
\@setckpt{concluding}{
\setcounter{page}{19}
\setcounter{equation}{0}
\setcounter{enumi}{0}
\setcounter{enumii}{0}
\setcounter{enumiii}{0}
\setcounter{enumiv}{0}
\setcounter{footnote}{0}
\setcounter{mpfootnote}{0}
\setcounter{part}{0}
\setcounter{chapter}{3}
\setcounter{section}{3}
\setcounter{subsection}{0}
\setcounter{subsubsection}{0}
\setcounter{paragraph}{0}
\setcounter{subparagraph}{0}
\setcounter{figure}{0}
\setcounter{table}{0}
\setcounter{NAT@ctr}{0}
\setcounter{AM@survey}{0}
\setcounter{LT@tables}{0}
\setcounter{LT@chunks}{0}
}
