\relax 
\citation{Muller2009,Waycott2009,Wernberg2011a,Nystrom2012,Harley2012}
\citation{Steneck2002}
\citation{Connell2010,Foster2010,Johnson2011,Wernberg2011,Wernberg2012,Moy2012,Falkenberg2012,Nystrom2012,Harley2012}
\citation{Harley2012}
\citation{parry2007climate}
\citation{VandenHoek1982,Luning1984,Hoek1988}
\citation{VandenHoek1990,Adey2001,Muller2009,Bartsch2012}
\citation{Wernberg2011a,Diez2012}
\citation{Serisawa2004,Johnson2011,Wernberg2012}
\citation{parry2007climate,Trenberth2012}
\citation{Wernberg2012}
\@writefile{toc}{\contentsline {chapter}{\numberline {1}Introduction}{1}}
\@writefile{lof}{\addvspace {10\p@ }}
\@writefile{lot}{\addvspace {10\p@ }}
\@writefile{toc}{\contentsline {section}{\numberline {1.1}Drivers causing loss of kelp forests}{1}}
\newlabel{sec:drivers}{{1.1}{1}}
\citation{Aksnes2009,Aksnes2009a}
\citation{Teichberg2012}
\citation{Cossellu2010}
\citation{Meleder2010}
\citation{Gorman2009,Schiel2006a,Deiman2012}
\citation{Nystrom2012}
\citation{Eriksson2002,Connell2008,Moy2012}
\citation{Irving2006,Russell2007,Falkenberg2012}
\citation{Gorman2009}
\citation{Gorman2009}
\citation{Moy2006,Moy2008}
\citation{Bekkby2011,Moy2012}
\citation{Moy2012}
\@writefile{toc}{\contentsline {section}{\numberline {1.2}Kelp loss in Norway: \emph  {Saccharina latissima}}{2}}
\newlabel{sec:Norway}{{1.2}{2}}
\citation{Moy2012}
\citation{Wiencke1994}
\citation{Moy2012}
\citation{Moy2012}
\citation{Rueness1991,Pedersen2001,Eriksson2002}
\citation{Turesson1922}
\citation{Eggert2012}
\citation{Bartsch2008}
\citation{Gerard1988,Gerard1988a,Gerard1990,Gerard1997,J.2002,Liu2009}
\@writefile{toc}{\contentsline {section}{\numberline {1.3}Fitness and ecotypes}{3}}
\@writefile{toc}{\contentsline {section}{\numberline {1.4}The scope of the synthesis}{4}}
\@setckpt{intro}{
\setcounter{page}{5}
\setcounter{equation}{0}
\setcounter{enumi}{0}
\setcounter{enumii}{0}
\setcounter{enumiii}{0}
\setcounter{enumiv}{0}
\setcounter{footnote}{0}
\setcounter{mpfootnote}{0}
\setcounter{part}{0}
\setcounter{chapter}{1}
\setcounter{section}{4}
\setcounter{subsection}{0}
\setcounter{subsubsection}{0}
\setcounter{paragraph}{0}
\setcounter{subparagraph}{0}
\setcounter{figure}{0}
\setcounter{table}{0}
\setcounter{NAT@ctr}{0}
\setcounter{AM@survey}{0}
\setcounter{LT@tables}{0}
\setcounter{LT@chunks}{0}
}
