\relax 
\citation{Bartsch2008}
\citation{Sjotun1993}
\citation{Moy2012}
\citation{Deiman2012,Schiel2006a}
\citation{Sjotun1993}
\citation{Moy2012}
\@writefile{toc}{\contentsline {chapter}{\numberline {2}Results and Discussion}{5}}
\@writefile{lof}{\addvspace {10\p@ }}
\@writefile{lot}{\addvspace {10\p@ }}
\@writefile{toc}{\contentsline {section}{\numberline {2.1}Seasonal patterns}{5}}
\citation{Hanelt2012}
\@writefile{lof}{\contentsline {figure}{\numberline {2.1}{\ignorespaces \textbf  {Seasonal patterns} of growth, epiphyte fouling and mortality of adult \emph  {Saccharina latissima} observed in Skagerrak. The error bars represent the 95\% confidence interval of the average epiphyte covers based on a binomial distribution. (Paper I gives a more detailed description.)}}{6}}
\newlabel{fig:Season}{{2.1}{6}}
\citation{Trannum2012}
\citation{parry2007climate}
\@writefile{toc}{\contentsline {section}{\numberline {2.2}Depth related patterns -- kelp in a squeeze}{7}}
\@writefile{lof}{\contentsline {figure}{\numberline {2.2}{\ignorespaces \textbf  {Depth related patterns of growth} in \emph  {Saccharina latissima} from both the Skagerrak (solid line) and the west coast (dashed line) populations in summer, spring and fall. (Paper II gives a more detailed description.)}}{7}}
\newlabel{fig:GrowthDepth}{{2.2}{7}}
\citation{Eggert2012}
\@writefile{lof}{\contentsline {figure}{\numberline {2.3}{\ignorespaces \textbf  {Probability of survival with depth} predicted from fall data in Skagerrak. The dashed lines represent the standard error of the predictions. (Paper II gives a more detailed description.)}}{8}}
\newlabel{fig:ProbSur}{{2.3}{8}}
\@writefile{toc}{\contentsline {section}{\numberline {2.3}Temperature and fitness}{8}}
\citation{Harley2012}
\citation{Muller2009}
\citation{Muller2009}
\citation{Potin2012}
\citation{Jormalainen2008}
\citation{Hepburn2005,Hepburn2006}
\citation{Fletcher1995,Jones2000,Saunders2007,Jormalainen2008,Scheibling2009}
\citation{Moy2012}
\@writefile{toc}{\contentsline {section}{\numberline {2.4}The impact of epiphyte covers}{9}}
\@writefile{lof}{\contentsline {figure}{\numberline {2.4}{\ignorespaces \textbf  {Photosynthesis \emph  {vs} irradiance} measured in \emph  {Saccharina latissima} at optimum (10 and 15\ensuremath  {^\circ }{C}) and high (20\ensuremath  {^\circ }{C}) temperatures. The compensation points (I\textsubscript  {c}) indicates the light levels where production equals consumption at the respective temperatures. (Paper IV gives a more detailed description.)}}{10}}
\newlabel{fig:PI}{{2.4}{10}}
\@writefile{lof}{\contentsline {figure}{\numberline {2.5}{\ignorespaces \textbf  {Shading by epiphyte covers} occurring on \emph  {Saccharina latissima} \emph  {in situ}. The error bars represent the 95\% confidence interval for the average shading caused by covers of \emph  {Ciona intestinalis} (vase tunicate) and \emph  {Electra pilosa} (bryozo) (based on a binomial distribution). The red dot marks the average density of algal epiphytes (dry weight in g~cm\textsuperscript  {-2}) found in October, while the vertical (dashed) lines indicates the 95\% confidence interval for this average (0.02--0.04 g~cm\textsuperscript  {-2}). The curved (solid) line represents the modelled shading effect of increasing the densitiy of algal epiphytes, and the shaded area indicates the 95\% confidence interval for this model. The x-axis is not printed because it relates only to the algal epiphytes. (Paper II gives a more detailed description.)}}{11}}
\newlabel{fig:EpiLight}{{2.5}{11}}
\@writefile{lof}{\contentsline {figure}{\numberline {2.6}{\ignorespaces The cover of a light depriving epiphyte (\emph  {Ciona intestinalis}) in relation to depth. The solid line represents model predictions, while the dashed lines represent the standard error of the predictions. Paper II gives a more detailed description)}}{12}}
\newlabel{fig:CionaCover}{{2.6}{12}}
\@writefile{lof}{\contentsline {figure}{\numberline {2.7}{\ignorespaces \textbf  {Light received} at 3 and 15 m depth in fall. The dashed line represent the minimum amount of light required to maintain a positive carbon budget at high (20 \ensuremath  {^\circ }{C}) and optimal (10 and 15 \ensuremath  {^\circ }{C}) temperatures respectively. (The concept is illustrated here, while Paper II and IV give more detailed descriptions.)}}{13}}
\newlabel{fig:LightDepth}{{2.7}{13}}
\citation{Gerard1988a}
\citation{Gerard1997}
\citation{Liu2009}
\citation{Gerard1988}
\citation{Moy2012}
\citation{Gorman2009}
\citation{Moy2012}
\citation{Connell2010,Eggert2012,Russell2005,Worm2006}
\@writefile{toc}{\contentsline {section}{\numberline {2.5}Ecotypic differentiation}{14}}
\@writefile{toc}{\contentsline {section}{\numberline {2.6}A broader perspective}{14}}
\newlabel{sec:perspective}{{2.6}{14}}
\citation{Falkenberg2012}
\citation{2003,Irving2006}
\@setckpt{resultsdiscussion}{
\setcounter{page}{16}
\setcounter{equation}{0}
\setcounter{enumi}{0}
\setcounter{enumii}{0}
\setcounter{enumiii}{0}
\setcounter{enumiv}{0}
\setcounter{footnote}{0}
\setcounter{mpfootnote}{0}
\setcounter{part}{0}
\setcounter{chapter}{2}
\setcounter{section}{6}
\setcounter{subsection}{0}
\setcounter{subsubsection}{0}
\setcounter{paragraph}{0}
\setcounter{subparagraph}{0}
\setcounter{figure}{7}
\setcounter{table}{0}
\setcounter{NAT@ctr}{0}
\setcounter{AM@survey}{0}
\setcounter{LT@tables}{0}
\setcounter{LT@chunks}{0}
}
