\relax 
\@input{quotes.aux}
\@newglossary{main}{glg}{gls}{glo}
\@istfilename{Thesis.ist}
\@glsorder{word}
\select@language{american}
\@writefile{toc}{\select@language{american}}
\@writefile{lof}{\select@language{american}}
\@writefile{lot}{\select@language{american}}
\@input{titlepage2.aux}
\@input{abstract.aux}
\@input{paperlist.aux}
\@input{ordliste.aux}
\@input{intro.aux}
\@input{resultsdiscussion.aux}
\@input{concluding.aux}
\bibdata{ThesisMS.bib}
\bibcite{Adey2001}{{1}{}{{}}{{}}}
\bibcite{Aksnes2009}{{2}{}{{}}{{}}}
\bibcite{Aksnes2009a}{{3}{}{{}}{{}}}
\bibcite{Bartsch2008}{{4}{}{{}}{{}}}
\bibcite{Bartsch2012}{{5}{}{{}}{{}}}
\bibcite{Bekkby2011}{{6}{}{{}}{{}}}
\bibcite{J.2002}{{7}{}{{}}{{}}}
\bibcite{Connell2010}{{8}{}{{}}{{}}}
\bibcite{2003}{{9}{}{{}}{{}}}
\bibcite{Connell2008}{{10}{}{{}}{{}}}
\bibcite{Cossellu2010}{{11}{}{{}}{{}}}
\bibcite{Deiman2012}{{12}{}{{}}{{}}}
\bibcite{Diez2012}{{13}{}{{}}{{}}}
\bibcite{Eggert2012}{{14}{}{{}}{{}}}
\bibcite{Eriksson2002}{{15}{}{{}}{{}}}
\bibcite{Falkenberg2012}{{16}{}{{}}{{}}}
\bibcite{Fletcher1995}{{17}{}{{}}{{}}}
\bibcite{Foster2010}{{18}{}{{}}{{}}}
\bibcite{Gerard1988}{{19}{}{{}}{{}}}
\bibcite{Gerard1990}{{20}{}{{}}{{}}}
\bibcite{Gerard1997}{{21}{}{{}}{{}}}
\bibcite{Gerard1988a}{{22}{}{{}}{{}}}
\bibcite{Gorman2009}{{23}{}{{}}{{}}}
\bibcite{Hanelt2012}{{24}{}{{}}{{}}}
\bibcite{Harley2012}{{25}{}{{}}{{}}}
\bibcite{Hepburn2005}{{26}{}{{}}{{}}}
\bibcite{Hepburn2006}{{27}{}{{}}{{}}}
\bibcite{Irving2006}{{28}{}{{}}{{}}}
\bibcite{Johnson2011}{{29}{}{{}}{{}}}
\bibcite{Jones2000}{{30}{}{{}}{{}}}
\bibcite{Jormalainen2008}{{31}{}{{}}{{}}}
\bibcite{Liu2009}{{32}{}{{}}{{}}}
\bibcite{Luning1984}{{33}{}{{}}{{}}}
\bibcite{Meleder2010}{{34}{}{{}}{{}}}
\bibcite{Moy2008}{{35}{}{{}}{{}}}
\bibcite{Moy2012}{{36}{}{{}}{{}}}
\bibcite{Moy2006}{{37}{}{{}}{{}}}
\bibcite{Muller2009}{{38}{}{{}}{{}}}
\bibcite{Nystrom2012}{{39}{}{{}}{{}}}
\bibcite{parry2007climate}{{40}{}{{}}{{}}}
\bibcite{Pedersen2001}{{41}{}{{}}{{}}}
\bibcite{Potin2012}{{42}{}{{}}{{}}}
\bibcite{Rueness1991}{{43}{}{{}}{{}}}
\bibcite{Russell2007}{{44}{}{{}}{{}}}
\bibcite{Russell2005}{{45}{}{{}}{{}}}
\bibcite{Saunders2007}{{46}{}{{}}{{}}}
\bibcite{Scheibling2009}{{47}{}{{}}{{}}}
\bibcite{Schiel2006a}{{48}{}{{}}{{}}}
\bibcite{Serisawa2004}{{49}{}{{}}{{}}}
\bibcite{Sjotun1993}{{50}{}{{}}{{}}}
\bibcite{Steneck2002}{{51}{}{{}}{{}}}
\bibcite{Teichberg2012}{{52}{}{{}}{{}}}
\bibcite{Trannum2012}{{53}{}{{}}{{}}}
\bibcite{Trenberth2012}{{54}{}{{}}{{}}}
\bibcite{Turesson1922}{{55}{}{{}}{{}}}
\bibcite{VandenHoek1982}{{56}{}{{}}{{}}}
\bibcite{VandenHoek1990}{{57}{}{{}}{{}}}
\bibcite{Hoek1988}{{58}{}{{}}{{}}}
\bibcite{Waycott2009}{{59}{}{{}}{{}}}
\bibcite{Wernberg2011}{{60}{}{{}}{{}}}
\bibcite{Wernberg2011a}{{61}{}{{}}{{}}}
\bibcite{Wernberg2012}{{62}{}{{}}{{}}}
\bibcite{Wiencke1994}{{63}{}{{}}{{}}}
\bibcite{Worm2006}{{64}{}{{}}{{}}}
\bibstyle{abbrv}
\providecommand\NAT@force@numbers{}\NAT@force@numbers
