%!PS-Adobe-3.0 EPSF-3.0
%%DocumentNeededResources: font Helvetica
%%+ font Helvetica-Bold
%%+ font Helvetica-Oblique
%%+ font Helvetica-BoldOblique
%%+ font Symbol
%%Title: Cover with depth
%%Creator: R Software
%%Pages: (atend)
%%BoundingBox: 0 0 432 360
%%EndComments
%%BeginProlog
/bp  { gs sRGB gs } def
% begin .ps.prolog
/gs  { gsave } bind def
/gr  { grestore } bind def
/ep  { showpage gr gr } bind def
/m   { moveto } bind def
/l  { rlineto } bind def
/np  { newpath } bind def
/cp  { closepath } bind def
/f   { fill } bind def
/o   { stroke } bind def
/c   { newpath 0 360 arc } bind def
/r   { 4 2 roll moveto 1 copy 3 -1 roll exch 0 exch rlineto 0 rlineto -1 mul 0 exch rlineto closepath } bind def
/p1  { stroke } bind def
/p2  { gsave bg fill grestore newpath } bind def
/p3  { gsave bg fill grestore stroke } bind def
/p6  { gsave bg eofill grestore newpath } bind def
/p7  { gsave bg eofill grestore stroke } bind def
/t   { 5 -2 roll moveto gsave rotate
       1 index stringwidth pop
       mul neg 0 rmoveto show grestore } bind def
/ta  { 4 -2 roll moveto gsave rotate show } bind def
/tb  { 2 -1 roll 0 rmoveto show } bind def
/cl  { grestore gsave newpath 3 index 3 index moveto 1 index
       4 -1 roll lineto  exch 1 index lineto lineto
       closepath clip newpath } bind def
/rgb { setrgbcolor } bind def
/s   { scalefont setfont } bind def
% end   .ps.prolog
/sRGB { [ /CIEBasedABC
          << /DecodeLMN
               [ { dup 0.03928 le
                        {12.92321 div}
                        {0.055 add 1.055 div 2.4 exp }
                     ifelse
                 } bind dup dup
               ]
             /MatrixLMN [0.412457 0.212673 0.019334
                         0.357576 0.715152 0.119192
                         0.180437 0.072175 0.950301]
             /WhitePoint [0.9505 1.0 1.0890]
           >>
         ] setcolorspace } bind def
/srgb { setcolor } bind def
%%IncludeResource: font Helvetica
/Helvetica findfont
dup length dict begin
  {1 index /FID ne {def} {pop pop} ifelse} forall
  /Encoding ISOLatin1Encoding def
  currentdict
  end
/Font1 exch definefont pop
%%IncludeResource: font Helvetica-Bold
/Helvetica-Bold findfont
dup length dict begin
  {1 index /FID ne {def} {pop pop} ifelse} forall
  /Encoding ISOLatin1Encoding def
  currentdict
  end
/Font2 exch definefont pop
%%IncludeResource: font Helvetica-Oblique
/Helvetica-Oblique findfont
dup length dict begin
  {1 index /FID ne {def} {pop pop} ifelse} forall
  /Encoding ISOLatin1Encoding def
  currentdict
  end
/Font3 exch definefont pop
%%IncludeResource: font Helvetica-BoldOblique
/Helvetica-BoldOblique findfont
dup length dict begin
  {1 index /FID ne {def} {pop pop} ifelse} forall
  /Encoding ISOLatin1Encoding def
  currentdict
  end
/Font4 exch definefont pop
%%IncludeResource: font Symbol
/Symbol findfont
dup length dict begin
  {1 index /FID ne {def} {pop pop} ifelse} forall
  currentdict
  end
/Font5 exch definefont pop
%%EndProlog
%%Page: 1 1
bp
0.00 0.00 432.00 360.00 cl
0 0 0 srgb
0.75 setlinewidth
[] 0 setdash
1 setlinecap
1 setlinejoin
10.00 setmiterlimit
np
71.73 73.44 m
317.34 0 l
o
np
71.73 73.44 m
0 -7.20 l
o
np
135.20 73.44 m
0 -7.20 l
o
np
198.67 73.44 m
0 -7.20 l
o
np
262.13 73.44 m
0 -7.20 l
o
np
325.60 73.44 m
0 -7.20 l
o
np
389.07 73.44 m
0 -7.20 l
o
/Font1 findfont 12 s
71.73 47.52 (0) .5 0 t
135.20 47.52 (5) .5 0 t
198.67 47.52 (10) .5 0 t
262.13 47.52 (15) .5 0 t
325.60 47.52 (20) .5 0 t
389.07 47.52 (25) .5 0 t
np
59.04 81.87 m
0 210.66 l
o
np
59.04 81.87 m
-7.20 0 l
o
np
59.04 124.00 m
-7.20 0 l
o
np
59.04 166.13 m
-7.20 0 l
o
np
59.04 208.27 m
-7.20 0 l
o
np
59.04 250.40 m
-7.20 0 l
o
np
59.04 292.53 m
-7.20 0 l
o
41.76 81.87 (0) .5 90 t
41.76 124.00 (20) .5 90 t
41.76 166.13 (40) .5 90 t
41.76 208.27 (60) .5 90 t
41.76 250.40 (80) .5 90 t
41.76 292.53 (100) .5 90 t
0.00 0.00 432.00 360.00 cl
/Font1 findfont 12 s
0 0 0 srgb
230.40 18.72 (Depth \(m\)) .5 0 t
12.96 123.51 (V) 90 ta
-0.840 (ase tunicate co) tb
-0.180 (v) tb
-0.300 (er \(%\)) tb gr
59.04 73.44 401.76 300.96 cl
0 0 0 srgb
1.50 setlinewidth
[] 0 setdash
1 setlinecap
1 setlinejoin
10.00 setmiterlimit
np
84.43 268.89 m
3.07 -1.59 l
3.08 -1.68 l
3.08 -1.77 l
3.08 -1.87 l
3.07 -1.97 l
3.08 -2.07 l
3.08 -2.18 l
3.07 -2.29 l
3.08 -2.39 l
3.08 -2.50 l
3.08 -2.61 l
3.07 -2.72 l
3.08 -2.83 l
3.08 -2.93 l
3.07 -3.05 l
3.08 -3.14 l
3.08 -3.24 l
3.08 -3.33 l
3.07 -3.42 l
3.08 -3.51 l
3.08 -3.58 l
3.07 -3.65 l
3.08 -3.71 l
3.08 -3.76 l
3.08 -3.80 l
3.07 -3.83 l
3.08 -3.86 l
3.08 -3.87 l
3.07 -3.86 l
3.08 -3.87 l
3.08 -3.84 l
3.08 -3.81 l
3.07 -3.77 l
3.08 -3.72 l
3.08 -3.67 l
3.07 -3.60 l
3.08 -3.53 l
3.08 -3.44 l
3.08 -3.36 l
3.07 -3.27 l
3.08 -3.17 l
3.08 -3.07 l
3.08 -2.97 l
3.07 -2.85 l
3.08 -2.76 l
3.08 -2.64 l
3.07 -2.53 l
3.08 -2.42 l
3.08 -2.32 l
3.08 -2.20 l
3.07 -2.11 l
3.08 -2.00 l
3.08 -1.89 l
3.07 -1.80 l
3.08 -1.71 l
3.08 -1.61 l
3.08 -1.52 l
3.07 -1.44 l
3.08 -1.36 l
3.08 -1.28 l
3.07 -1.20 l
3.08 -1.13 l
3.08 -1.06 l
3.08 -1.00 l
3.07 -0.94 l
3.08 -0.87 l
3.08 -0.83 l
3.07 -0.77 l
3.08 -0.72 l
3.08 -0.67 l
3.08 -0.63 l
3.07 -0.59 l
3.08 -0.56 l
3.08 -0.51 l
3.07 -0.48 l
3.08 -0.45 l
3.08 -0.42 l
3.08 -0.39 l
3.07 -0.36 l
3.08 -0.34 l
3.08 -0.32 l
3.07 -0.30 l
3.08 -0.27 l
3.08 -0.26 l
3.08 -0.23 l
3.07 -0.23 l
3.08 -0.20 l
3.08 -0.20 l
3.07 -0.18 l
3.08 -0.16 l
3.08 -0.16 l
3.08 -0.14 l
3.07 -0.14 l
3.08 -0.12 l
3.08 -0.12 l
3.08 -0.11 l
3.07 -0.10 l
3.08 -0.09 l
3.08 -0.09 l
o
1.50 setlinewidth
[ 4.50 7.50] 0 setdash
np
84.43 279.91 m
3.07 -1.06 l
3.08 -1.14 l
3.08 -1.22 l
3.08 -1.31 l
3.07 -1.39 l
3.08 -1.48 l
3.08 -1.59 l
3.07 -1.67 l
3.08 -1.78 l
3.08 -1.89 l
3.08 -1.98 l
3.07 -2.10 l
3.08 -2.20 l
3.08 -2.30 l
3.07 -2.41 l
3.08 -2.51 l
3.08 -2.61 l
3.08 -2.71 l
3.07 -2.81 l
3.08 -2.89 l
3.08 -2.98 l
3.07 -3.05 l
3.08 -3.13 l
3.08 -3.20 l
3.08 -3.25 l
3.07 -3.30 l
3.08 -3.35 l
3.08 -3.38 l
3.07 -3.42 l
3.08 -3.43 l
3.08 -3.45 l
3.08 -3.46 l
3.07 -3.45 l
3.08 -3.45 l
3.08 -3.43 l
3.07 -3.41 l
3.08 -3.39 l
3.08 -3.36 l
3.08 -3.31 l
3.07 -3.28 l
3.08 -3.23 l
3.08 -3.17 l
3.08 -3.12 l
3.07 -3.06 l
3.08 -3.01 l
3.08 -2.93 l
3.07 -2.87 l
3.08 -2.80 l
3.08 -2.73 l
3.08 -2.65 l
3.07 -2.59 l
3.08 -2.51 l
3.08 -2.43 l
3.07 -2.36 l
3.08 -2.28 l
3.08 -2.21 l
3.08 -2.13 l
3.07 -2.06 l
3.08 -1.99 l
3.08 -1.91 l
3.07 -1.85 l
3.08 -1.77 l
3.08 -1.71 l
3.08 -1.63 l
3.07 -1.58 l
3.08 -1.50 l
3.08 -1.45 l
3.07 -1.38 l
3.08 -1.33 l
3.08 -1.27 l
3.08 -1.21 l
3.07 -1.17 l
3.08 -1.10 l
3.08 -1.06 l
3.07 -1.02 l
3.08 -0.96 l
3.08 -0.92 l
3.08 -0.88 l
3.07 -0.83 l
3.08 -0.80 l
3.08 -0.76 l
3.07 -0.72 l
3.08 -0.69 l
3.08 -0.66 l
3.08 -0.62 l
3.07 -0.59 l
3.08 -0.57 l
3.08 -0.53 l
3.07 -0.51 l
3.08 -0.48 l
3.08 -0.46 l
3.08 -0.44 l
3.07 -0.42 l
3.08 -0.39 l
3.08 -0.37 l
3.08 -0.36 l
3.07 -0.33 l
3.08 -0.32 l
3.08 -0.31 l
o
np
84.43 250.31 m
3.07 -2.10 l
3.08 -2.18 l
3.08 -2.28 l
3.08 -2.37 l
3.07 -2.46 l
3.08 -2.55 l
3.08 -2.65 l
3.07 -2.74 l
3.08 -2.85 l
3.08 -2.93 l
3.08 -3.04 l
3.07 -3.12 l
3.08 -3.22 l
3.08 -3.31 l
3.07 -3.40 l
3.08 -3.47 l
3.08 -3.56 l
3.08 -3.62 l
3.07 -3.69 l
3.08 -3.75 l
3.08 -3.79 l
3.07 -3.83 l
3.08 -3.86 l
3.08 -3.88 l
3.08 -3.89 l
3.07 -3.88 l
3.08 -3.86 l
3.08 -3.83 l
3.07 -3.79 l
3.08 -3.74 l
3.08 -3.67 l
3.08 -3.60 l
3.07 -3.51 l
3.08 -3.42 l
3.08 -3.31 l
3.07 -3.20 l
3.08 -3.09 l
3.08 -2.97 l
3.08 -2.84 l
3.07 -2.71 l
3.08 -2.59 l
3.08 -2.46 l
3.08 -2.33 l
3.07 -2.20 l
3.08 -2.08 l
3.08 -1.96 l
3.07 -1.84 l
3.08 -1.72 l
3.08 -1.62 l
3.08 -1.50 l
3.07 -1.41 l
3.08 -1.31 l
3.08 -1.21 l
3.07 -1.14 l
3.08 -1.04 l
3.08 -0.98 l
3.08 -0.89 l
3.07 -0.84 l
3.08 -0.76 l
3.08 -0.71 l
3.07 -0.65 l
3.08 -0.61 l
3.08 -0.55 l
3.08 -0.51 l
3.07 -0.47 l
3.08 -0.43 l
3.08 -0.39 l
3.07 -0.37 l
3.08 -0.33 l
3.08 -0.31 l
3.08 -0.28 l
3.07 -0.25 l
3.08 -0.24 l
3.08 -0.21 l
3.07 -0.20 l
3.08 -0.18 l
3.08 -0.17 l
3.08 -0.15 l
3.07 -0.14 l
3.08 -0.12 l
3.08 -0.12 l
3.07 -0.10 l
3.08 -0.10 l
3.08 -0.09 l
3.08 -0.08 l
3.07 -0.07 l
3.08 -0.07 l
3.08 -0.06 l
3.07 -0.06 l
3.08 -0.05 l
3.08 -0.05 l
3.08 -0.04 l
3.07 -0.04 l
3.08 -0.03 l
3.08 -0.04 l
3.08 -0.02 l
3.07 -0.03 l
3.08 -0.03 l
3.08 -0.02 l
o
ep
%%Trailer
%%Pages: 1
%%EOF
