%!PS-Adobe-3.0 EPSF-3.0
%%DocumentNeededResources: font Helvetica
%%+ font Helvetica-Bold
%%+ font Helvetica-Oblique
%%+ font Helvetica-BoldOblique
%%+ font Symbol
%%Title: Epiphyte light attenuation
%%Creator: R Software
%%Pages: (atend)
%%BoundingBox: 0 0 720 576
%%EndComments
%%BeginProlog
/bp  { gs sRGB gs } def
% begin .ps.prolog
/gs  { gsave } bind def
/gr  { grestore } bind def
/ep  { showpage gr gr } bind def
/m   { moveto } bind def
/l  { rlineto } bind def
/np  { newpath } bind def
/cp  { closepath } bind def
/f   { fill } bind def
/o   { stroke } bind def
/c   { newpath 0 360 arc } bind def
/r   { 4 2 roll moveto 1 copy 3 -1 roll exch 0 exch rlineto 0 rlineto -1 mul 0 exch rlineto closepath } bind def
/p1  { stroke } bind def
/p2  { gsave bg fill grestore newpath } bind def
/p3  { gsave bg fill grestore stroke } bind def
/p6  { gsave bg eofill grestore newpath } bind def
/p7  { gsave bg eofill grestore stroke } bind def
/t   { 5 -2 roll moveto gsave rotate
       1 index stringwidth pop
       mul neg 0 rmoveto show grestore } bind def
/ta  { 4 -2 roll moveto gsave rotate show } bind def
/tb  { 2 -1 roll 0 rmoveto show } bind def
/cl  { grestore gsave newpath 3 index 3 index moveto 1 index
       4 -1 roll lineto  exch 1 index lineto lineto
       closepath clip newpath } bind def
/rgb { setrgbcolor } bind def
/s   { scalefont setfont } bind def
% end   .ps.prolog
/sRGB { [ /CIEBasedABC
          << /DecodeLMN
               [ { dup 0.03928 le
                        {12.92321 div}
                        {0.055 add 1.055 div 2.4 exp }
                     ifelse
                 } bind dup dup
               ]
             /MatrixLMN [0.412457 0.212673 0.019334
                         0.357576 0.715152 0.119192
                         0.180437 0.072175 0.950301]
             /WhitePoint [0.9505 1.0 1.0890]
           >>
         ] setcolorspace } bind def
/srgb { setcolor } bind def
%%IncludeResource: font Helvetica
/Helvetica findfont
dup length dict begin
  {1 index /FID ne {def} {pop pop} ifelse} forall
  /Encoding ISOLatin1Encoding def
  currentdict
  end
/Font1 exch definefont pop
%%IncludeResource: font Helvetica-Bold
/Helvetica-Bold findfont
dup length dict begin
  {1 index /FID ne {def} {pop pop} ifelse} forall
  /Encoding ISOLatin1Encoding def
  currentdict
  end
/Font2 exch definefont pop
%%IncludeResource: font Helvetica-Oblique
/Helvetica-Oblique findfont
dup length dict begin
  {1 index /FID ne {def} {pop pop} ifelse} forall
  /Encoding ISOLatin1Encoding def
  currentdict
  end
/Font3 exch definefont pop
%%IncludeResource: font Helvetica-BoldOblique
/Helvetica-BoldOblique findfont
dup length dict begin
  {1 index /FID ne {def} {pop pop} ifelse} forall
  /Encoding ISOLatin1Encoding def
  currentdict
  end
/Font4 exch definefont pop
%%IncludeResource: font Symbol
/Symbol findfont
dup length dict begin
  {1 index /FID ne {def} {pop pop} ifelse} forall
  currentdict
  end
/Font5 exch definefont pop
%%EndProlog
%%Page: 1 1
bp
0.00 0.00 720.00 576.00 cl
0 0 0 srgb
0.75 setlinewidth
[] 0 setdash
1 setlinecap
1 setlinejoin
10.00 setmiterlimit
np
72.00 89.60 m
0 440.00 l
o
np
72.00 89.60 m
-7.20 0 l
o
np
72.00 177.60 m
-7.20 0 l
o
np
72.00 265.60 m
-7.20 0 l
o
np
72.00 353.60 m
-7.20 0 l
o
np
72.00 441.60 m
-7.20 0 l
o
np
72.00 529.60 m
-7.20 0 l
o
/Font1 findfont 18 s
57.60 83.14 (0) 1 0 t
57.60 171.14 (20) 1 0 t
57.60 259.14 (40) 1 0 t
57.60 347.14 (60) 1 0 t
57.60 435.14 (80) 1 0 t
57.60 523.14 (100) 1 0 t
57.60 57.60 705.60 561.60 cl
72.00 72.00 691.20 547.20 cl
0.8000 0.8000 0.8000 srgb
0.75 setlinewidth
[] 0 setdash
1 setlinecap
1 setlinejoin
10.00 setmiterlimit
np
234.03 383.47 m
37.80 37.80 l
o
np
217.07 362.43 m
74.66 74.67 l
o
np
206.46 347.75 m
98.60 98.60 l
o
np
198.13 335.35 m
118.00 118.00 l
o
np
191.17 324.31 m
134.70 134.71 l
o
np
185.06 314.14 m
149.65 149.64 l
o
np
179.59 304.59 m
163.36 163.36 l
o
np
174.60 295.53 m
176.09 176.09 l
o
np
169.98 286.84 m
188.05 188.05 l
o
np
165.76 278.54 m
199.32 199.32 l
o
np
161.79 270.50 m
210.07 210.07 l
o
np
158.00 262.63 m
220.43 220.43 l
o
np
154.47 255.03 m
230.32 230.32 l
o
np
151.09 247.58 m
239.89 239.89 l
o
np
147.84 240.26 m
249.18 249.17 l
o
np
144.79 233.13 m
258.14 258.14 l
o
np
141.80 226.07 m
266.92 266.92 l
o
np
138.99 219.19 m
275.42 275.41 l
o
np
136.22 212.35 m
283.78 283.77 l
o
np
133.60 205.65 m
87.99 87.99 l
o
np
283.78 355.83 m
141.72 141.72 l
o
np
131.04 199.02 m
71.77 71.77 l
o
np
305.35 373.33 m
125.57 125.57 l
o
np
128.56 192.46 m
61.32 61.32 l
o
np
321.05 384.96 m
115.22 115.21 l
o
np
126.17 186.01 m
53.32 53.32 l
o
np
334.13 393.96 m
107.41 107.42 l
o
np
123.80 179.56 m
46.79 46.79 l
o
np
345.72 401.48 m
101.04 101.04 l
o
np
121.58 173.27 m
41.23 41.23 l
o
np
356.29 407.98 m
95.62 95.62 l
o
np
119.36 166.98 m
36.41 36.40 l
o
np
366.09 413.70 m
90.93 90.93 l
o
np
117.21 160.75 m
32.10 32.10 l
o
np
375.28 418.82 m
86.79 86.79 l
o
np
115.14 154.61 m
28.19 28.19 l
o
np
384.03 423.50 m
83.05 83.04 l
o
np
113.07 148.47 m
24.68 24.68 l
o
np
392.35 427.75 m
79.69 79.69 l
o
np
111.09 142.41 m
21.42 21.42 l
o
np
400.36 431.69 m
76.60 76.60 l
o
np
109.16 136.41 m
18.39 18.39 l
o
np
408.10 435.35 m
73.74 73.74 l
o
np
107.23 130.41 m
15.60 15.60 l
o
np
415.56 438.74 m
71.12 71.12 l
o
np
105.38 124.48 m
12.95 12.95 l
o
np
422.82 441.93 m
68.68 68.67 l
o
np
103.57 118.60 m
10.50 10.50 l
o
np
429.90 444.93 m
66.38 66.38 l
o
np
101.76 112.72 m
8.20 8.20 l
o
np
436.80 447.76 m
64.23 64.22 l
o
np
100.01 106.89 m
5.97 5.98 l
o
np
443.54 450.43 m
62.21 62.20 l
o
np
98.32 101.13 m
3.87 3.87 l
o
np
450.14 452.96 m
60.30 60.29 l
o
np
96.62 95.36 m
1.90 1.90 l
o
np
456.62 455.36 m
58.48 58.48 l
o
np
462.98 457.65 m
56.76 56.76 l
o
np
469.23 459.83 m
55.14 55.13 l
o
np
475.39 461.91 m
53.57 53.57 l
o
np
481.45 463.90 m
52.09 52.08 l
o
np
487.43 465.80 m
50.66 50.67 l
o
np
493.33 467.63 m
49.30 49.30 l
o
np
499.15 469.38 m
48.00 48.00 l
o
np
504.90 471.06 m
46.75 46.75 l
o
np
510.59 472.67 m
45.54 45.55 l
o
np
516.22 474.23 m
44.38 44.38 l
o
np
521.79 475.72 m
43.27 43.27 l
o
np
527.30 477.17 m
42.20 42.19 l
o
np
532.77 478.56 m
41.15 41.15 l
o
np
538.18 479.90 m
40.15 40.15 l
o
np
543.55 481.19 m
39.18 39.19 l
o
np
548.87 482.45 m
38.25 38.25 l
o
np
554.16 483.66 m
37.34 37.34 l
o
np
559.40 484.83 m
36.46 36.46 l
o
np
564.61 485.96 m
35.61 35.61 l
o
np
569.78 487.06 m
34.79 34.79 l
o
np
574.91 488.12 m
33.99 33.99 l
o
np
580.01 489.14 m
33.21 33.22 l
o
np
585.08 490.14 m
32.46 32.46 l
o
np
590.12 491.11 m
31.73 31.73 l
o
np
595.13 492.04 m
31.02 31.02 l
o
np
600.11 492.95 m
30.33 30.33 l
o
np
605.07 493.84 m
29.65 29.65 l
o
np
610.00 494.70 m
29.00 29.00 l
o
np
614.90 495.53 m
28.37 28.36 l
o
np
619.78 496.33 m
27.75 27.75 l
o
np
624.64 497.12 m
27.15 27.15 l
o
np
629.48 497.88 m
26.56 26.56 l
o
np
634.30 498.63 m
25.98 25.98 l
o
np
639.09 499.35 m
25.43 25.43 l
o
np
643.87 500.05 m
24.40 24.40 l
o
np
648.62 500.73 m
19.65 19.65 l
o
np
653.36 501.40 m
14.91 14.91 l
o
np
658.08 502.05 m
10.19 10.18 l
o
np
662.78 502.68 m
5.49 5.48 l
o
np
667.47 503.29 m
0.80 0.80 l
o
0 0 0 srgb
1.50 setlinewidth
[] 0 setdash
np
94.93 89.60 m
5.74 15.91 l
5.73 15.33 l
5.73 14.78 l
5.74 14.24 l
5.73 13.73 l
5.73 13.23 l
5.74 12.75 l
5.73 12.30 l
5.73 11.84 l
5.74 11.42 l
5.73 11.01 l
5.73 10.61 l
5.74 10.23 l
5.73 9.85 l
5.73 9.50 l
5.74 9.16 l
5.73 8.82 l
5.73 8.51 l
5.74 8.20 l
5.73 7.90 l
5.73 7.62 l
5.74 7.34 l
5.73 7.07 l
5.73 6.82 l
5.74 6.58 l
5.73 6.33 l
5.73 6.11 l
5.74 5.88 l
5.73 5.68 l
5.73 5.47 l
5.74 5.27 l
5.73 5.08 l
5.73 4.89 l
5.74 4.72 l
5.73 4.55 l
5.73 4.38 l
5.74 4.23 l
5.73 4.07 l
5.73 3.93 l
5.74 3.78 l
5.73 3.65 l
5.73 3.51 l
5.74 3.39 l
5.73 3.27 l
5.73 3.15 l
5.74 3.03 l
5.73 2.92 l
5.73 2.82 l
5.74 2.72 l
5.73 2.62 l
5.73 2.52 l
5.74 2.43 l
5.73 2.35 l
5.73 2.26 l
5.74 2.17 l
5.73 2.10 l
5.73 2.03 l
5.74 1.95 l
5.73 1.88 l
5.73 1.81 l
5.74 1.74 l
5.73 1.69 l
5.73 1.62 l
5.74 1.56 l
5.73 1.51 l
5.73 1.45 l
5.74 1.40 l
5.73 1.35 l
5.73 1.30 l
5.74 1.26 l
5.73 1.20 l
5.73 1.17 l
5.74 1.12 l
5.73 1.08 l
5.73 1.05 l
5.74 1.00 l
5.73 0.97 l
5.73 0.93 l
5.74 0.90 l
5.73 0.87 l
5.73 0.84 l
5.74 0.80 l
5.73 0.78 l
5.73 0.75 l
5.74 0.72 l
5.73 0.70 l
5.73 0.67 l
5.74 0.64 l
5.73 0.63 l
5.73 0.60 l
5.74 0.57 l
5.73 0.56 l
5.73 0.54 l
5.74 0.52 l
5.73 0.50 l
5.73 0.48 l
5.74 0.46 l
5.73 0.45 l
5.73 0.43 l
668.27 518.53 lineto
o
1.50 setlinewidth
[ 4.50 7.50] 0 setdash
np
312.07 72.00 m
0 475.20 l
o
np
475.70 72.00 m
0 475.20 l
o
0.75 setlinewidth
[] 0 setdash
np
434.79 94.00 m
0 44.00 l
o
np
428.31 94.00 m
6.48 0 l
6.48 0 l
o
np
434.79 349.20 m
0 -211.20 l
o
np
441.27 349.20 m
-6.48 0 l
-6.48 0 l
o
/bg { 0 0 1 srgb } def
434.79 138.00 6.75 c p3
np
352.98 243.60 m
0 246.40 l
o
np
346.50 243.60 m
6.48 0 l
6.48 0 l
o
np
352.98 525.20 m
0 -35.20 l
o
np
359.46 525.20 m
-6.48 0 l
-6.48 0 l
o
/bg { 1 0.6471 0 srgb } def
352.98 490.00 6.75 c p3
/bg { 0.5451 0 0 srgb } def
393.89 465.09 6.75 c p3
0.00 0.00 720.00 576.00 cl
/Font1 findfont 18 s
0 0 0 srgb
25.92 209.06 (Light b) 90 ta
-0.360 (lock) tb
-0.360 (ed \(% of P) tb
-2.160 (AR\)) tb gr
72.00 72.00 691.20 547.20 cl
/Font3 findfont 18 s
0 0 0 srgb
434.79 357.80 (E. pil.) .5 0 t
352.98 531.94 (C. int.) .5 0 t
ep
%%Trailer
%%Pages: 1
%%EOF
