%!PS-Adobe-3.0 EPSF-3.0
%%DocumentNeededResources: font Helvetica
%%+ font Helvetica-Bold
%%+ font Helvetica-Oblique
%%+ font Helvetica-BoldOblique
%%+ font Symbol
%%Title: Light profiles
%%Creator: R Software
%%Pages: (atend)
%%BoundingBox: 0 0 720 576
%%EndComments
%%BeginProlog
/bp  { gs sRGB gs } def
% begin .ps.prolog
/gs  { gsave } bind def
/gr  { grestore } bind def
/ep  { showpage gr gr } bind def
/m   { moveto } bind def
/l  { rlineto } bind def
/np  { newpath } bind def
/cp  { closepath } bind def
/f   { fill } bind def
/o   { stroke } bind def
/c   { newpath 0 360 arc } bind def
/r   { 4 2 roll moveto 1 copy 3 -1 roll exch 0 exch rlineto 0 rlineto -1 mul 0 exch rlineto closepath } bind def
/p1  { stroke } bind def
/p2  { gsave bg fill grestore newpath } bind def
/p3  { gsave bg fill grestore stroke } bind def
/p6  { gsave bg eofill grestore newpath } bind def
/p7  { gsave bg eofill grestore stroke } bind def
/t   { 5 -2 roll moveto gsave rotate
       1 index stringwidth pop
       mul neg 0 rmoveto show grestore } bind def
/ta  { 4 -2 roll moveto gsave rotate show } bind def
/tb  { 2 -1 roll 0 rmoveto show } bind def
/cl  { grestore gsave newpath 3 index 3 index moveto 1 index
       4 -1 roll lineto  exch 1 index lineto lineto
       closepath clip newpath } bind def
/rgb { setrgbcolor } bind def
/s   { scalefont setfont } bind def
% end   .ps.prolog
/sRGB { [ /CIEBasedABC
          << /DecodeLMN
               [ { dup 0.03928 le
                        {12.92321 div}
                        {0.055 add 1.055 div 2.4 exp }
                     ifelse
                 } bind dup dup
               ]
             /MatrixLMN [0.412457 0.212673 0.019334
                         0.357576 0.715152 0.119192
                         0.180437 0.072175 0.950301]
             /WhitePoint [0.9505 1.0 1.0890]
           >>
         ] setcolorspace } bind def
/srgb { setcolor } bind def
%%IncludeResource: font Helvetica
/Helvetica findfont
dup length dict begin
  {1 index /FID ne {def} {pop pop} ifelse} forall
  /Encoding ISOLatin1Encoding def
  currentdict
  end
/Font1 exch definefont pop
%%IncludeResource: font Helvetica-Bold
/Helvetica-Bold findfont
dup length dict begin
  {1 index /FID ne {def} {pop pop} ifelse} forall
  /Encoding ISOLatin1Encoding def
  currentdict
  end
/Font2 exch definefont pop
%%IncludeResource: font Helvetica-Oblique
/Helvetica-Oblique findfont
dup length dict begin
  {1 index /FID ne {def} {pop pop} ifelse} forall
  /Encoding ISOLatin1Encoding def
  currentdict
  end
/Font3 exch definefont pop
%%IncludeResource: font Helvetica-BoldOblique
/Helvetica-BoldOblique findfont
dup length dict begin
  {1 index /FID ne {def} {pop pop} ifelse} forall
  /Encoding ISOLatin1Encoding def
  currentdict
  end
/Font4 exch definefont pop
%%IncludeResource: font Symbol
/Symbol findfont
dup length dict begin
  {1 index /FID ne {def} {pop pop} ifelse} forall
  currentdict
  end
/Font5 exch definefont pop
%%EndProlog
%%Page: 1 1
bp
57.60 57.60 705.60 561.60 cl
/Font1 findfont 12 s
0 0 0 srgb
381.60 17.28 (hh) .5 0 t
0.00 0.00 720.00 576.00 cl
0 0 0 srgb
0.75 setlinewidth
[] 0 setdash
1 setlinecap
1 setlinejoin
10.00 setmiterlimit
np
94.93 72.00 m
573.34 0 l
o
np
94.93 72.00 m
0 -7.20 l
o
np
119.86 72.00 m
0 -7.20 l
o
np
144.79 72.00 m
0 -7.20 l
o
np
169.72 72.00 m
0 -7.20 l
o
np
194.64 72.00 m
0 -7.20 l
o
np
219.57 72.00 m
0 -7.20 l
o
np
244.50 72.00 m
0 -7.20 l
o
np
269.43 72.00 m
0 -7.20 l
o
np
294.35 72.00 m
0 -7.20 l
o
np
319.28 72.00 m
0 -7.20 l
o
np
344.21 72.00 m
0 -7.20 l
o
np
369.14 72.00 m
0 -7.20 l
o
np
394.06 72.00 m
0 -7.20 l
o
np
418.99 72.00 m
0 -7.20 l
o
np
443.92 72.00 m
0 -7.20 l
o
np
468.85 72.00 m
0 -7.20 l
o
np
493.77 72.00 m
0 -7.20 l
o
np
518.70 72.00 m
0 -7.20 l
o
np
543.63 72.00 m
0 -7.20 l
o
np
568.56 72.00 m
0 -7.20 l
o
np
593.48 72.00 m
0 -7.20 l
o
np
618.41 72.00 m
0 -7.20 l
o
np
643.34 72.00 m
0 -7.20 l
o
np
668.27 72.00 m
0 -7.20 l
o
/Font1 findfont 18 s
94.93 46.08 (00) .5 0 t
144.79 46.08 (02) .5 0 t
194.64 46.08 (04) .5 0 t
244.50 46.08 (06) .5 0 t
294.35 46.08 (08) .5 0 t
344.21 46.08 (10) .5 0 t
394.06 46.08 (12) .5 0 t
443.92 46.08 (14) .5 0 t
493.77 46.08 (16) .5 0 t
543.63 46.08 (18) .5 0 t
593.48 46.08 (20) .5 0 t
643.34 46.08 (22) .5 0 t
72.00 72.00 691.20 547.20 cl
0 0 0 srgb
1.50 setlinewidth
[] 0 setdash
1 setlinecap
1 setlinejoin
10.00 setmiterlimit
np
94.93 90.27 m
5.74 0.19 l
5.73 0.24 l
5.73 0.29 l
5.74 0.36 l
5.73 0.45 l
5.73 0.55 l
5.74 0.67 l
5.73 0.81 l
5.73 0.97 l
5.74 1.18 l
5.73 1.40 l
5.73 1.66 l
5.74 1.96 l
5.73 2.31 l
5.73 2.69 l
5.74 3.13 l
5.73 3.61 l
5.73 4.15 l
5.74 4.75 l
5.73 5.39 l
5.73 6.10 l
5.74 6.84 l
5.73 7.64 l
5.73 8.49 l
5.74 9.37 l
5.73 10.27 l
5.73 11.20 l
5.74 12.13 l
5.73 13.06 l
5.73 13.97 l
5.74 14.84 l
5.73 15.65 l
5.73 16.40 l
5.74 17.05 l
5.73 17.60 l
5.73 18.01 l
5.74 18.29 l
5.73 18.40 l
5.73 18.35 l
5.74 18.11 l
5.73 17.67 l
5.73 17.04 l
5.74 16.21 l
5.73 15.18 l
5.73 13.97 l
5.74 12.56 l
5.73 11.01 l
5.73 9.29 l
5.74 7.44 l
5.73 5.51 l
5.73 3.48 l
5.74 1.41 l
5.73 -0.68 l
5.73 -2.77 l
5.74 -4.81 l
5.73 -6.78 l
5.73 -8.66 l
5.74 -10.42 l
5.73 -12.05 l
5.73 -13.49 l
5.74 -14.79 l
5.73 -15.87 l
5.73 -16.77 l
5.74 -17.48 l
5.73 -17.97 l
5.73 -18.29 l
5.74 -18.40 l
5.73 -18.35 l
5.73 -18.13 l
5.74 -17.75 l
5.73 -17.26 l
5.73 -16.64 l
5.74 -15.92 l
5.73 -15.13 l
5.73 -14.27 l
5.74 -13.38 l
5.73 -12.46 l
5.73 -11.52 l
5.74 -10.60 l
5.73 -9.67 l
5.73 -8.79 l
5.74 -7.93 l
5.73 -7.12 l
5.73 -6.35 l
5.74 -5.63 l
5.73 -4.96 l
5.73 -4.36 l
5.74 -3.79 l
5.73 -3.30 l
5.73 -2.83 l
5.74 -2.44 l
5.73 -2.08 l
5.73 -1.76 l
5.74 -1.48 l
5.73 -1.25 l
5.73 -1.04 l
5.74 -0.87 l
5.73 -0.71 l
5.73 -0.59 l
668.27 91.50 lineto
o
np
94.93 89.67 m
5.74 0.02 l
5.73 0.02 l
5.73 0.03 l
5.74 0.04 l
5.73 0.04 l
5.73 0.05 l
5.74 0.07 l
5.73 0.08 l
5.73 0.10 l
5.74 0.12 l
5.73 0.14 l
5.73 0.16 l
5.74 0.20 l
5.73 0.23 l
5.73 0.27 l
5.74 0.31 l
5.73 0.36 l
5.73 0.42 l
5.74 0.47 l
5.73 0.54 l
5.73 0.61 l
5.74 0.69 l
5.73 0.76 l
5.73 0.85 l
5.74 0.94 l
5.73 1.02 l
5.73 1.12 l
5.74 1.22 l
5.73 1.30 l
5.73 1.40 l
5.74 1.48 l
5.73 1.57 l
5.73 1.64 l
5.74 1.70 l
5.73 1.76 l
5.73 1.81 l
5.74 1.82 l
5.73 1.84 l
5.73 1.84 l
5.74 1.81 l
5.73 1.77 l
5.73 1.70 l
5.74 1.62 l
5.73 1.52 l
5.73 1.40 l
5.74 1.25 l
5.73 1.10 l
5.73 0.93 l
5.74 0.75 l
5.73 0.55 l
5.73 0.35 l
5.74 0.14 l
5.73 -0.07 l
5.73 -0.28 l
5.74 -0.48 l
5.73 -0.68 l
5.73 -0.86 l
5.74 -1.05 l
5.73 -1.20 l
5.73 -1.35 l
5.74 -1.48 l
5.73 -1.58 l
5.73 -1.68 l
5.74 -1.75 l
5.73 -1.80 l
5.73 -1.83 l
5.74 -1.84 l
5.73 -1.83 l
5.73 -1.81 l
5.74 -1.78 l
5.73 -1.72 l
5.73 -1.67 l
5.74 -1.59 l
5.73 -1.51 l
5.73 -1.43 l
5.74 -1.34 l
5.73 -1.24 l
5.73 -1.16 l
5.74 -1.06 l
5.73 -0.96 l
5.73 -0.88 l
5.74 -0.80 l
5.73 -0.71 l
5.73 -0.63 l
5.74 -0.57 l
5.73 -0.49 l
5.73 -0.44 l
5.74 -0.38 l
5.73 -0.33 l
5.73 -0.28 l
5.74 -0.24 l
5.73 -0.21 l
5.73 -0.18 l
5.74 -0.15 l
5.73 -0.12 l
5.73 -0.11 l
5.74 -0.08 l
5.73 -0.07 l
5.73 -0.06 l
668.27 89.79 lineto
o
1 0 0 srgb
1.50 setlinewidth
[ 4.50 7.50] 0 setdash
np
94.93 204.00 m
573.34 0 l
o
/Font1 findfont 14 s
98.52 217.98 (Cr) 0 ta
0.210 (itical \(high temp\)) tb gr
0 0 1 srgb
np
94.93 116.00 m
573.34 0 l
o
98.76 129.89 (Cr) 0 ta
0.210 (itical \(lo) tb
-0.210 (w temp\)) tb gr
0 0 0 srgb
1.50 setlinewidth
[] 0 setdash
np
94.93 89.60 m
0 457.60 l
o
np
103.93 531.61 m
-9.00 15.59 l
-9.00 -15.59 l
o
np
468.85 529.60 m
-49.86 0 l
o
np
425.23 533.20 m
-6.24 -3.60 l
6.24 -3.60 l
o
494.63 525.89 (Clean k) 0 ta
-0.280 (elp at 3 m depth) tb gr
np
593.48 353.60 m
-124.63 -220.00 l
o
np
468.79 140.80 m
0.06 -7.20 l
6.20 3.65 l
o
505.55 383.61 (Clean k) 0 ta
-0.280 (elp at 15 m depth or ) tb gr
505.17 366.33 (o) 0 ta
-0.210 (v) tb
-0.350 (ergro) tb
-0.210 (wn k) tb
-0.280 (elp at 3 m depth) tb gr
np
394.06 520.80 m
0 -378.40 l
o
np
385.06 157.99 m
9.00 -15.59 l
9.00 15.59 l
o
/Font1 findfont 18 s
418.99 303.44 ( -90%) .5 0 t
0.00 0.00 720.00 576.00 cl
/Font1 findfont 18 s
0 0 0 srgb
69.12 269.59 (Irr) 90 ta
-0.180 (adiance) tb gr
393.98 17.28 (Hour) 0.52 0 t
ep
%%Trailer
%%Pages: 1
%%EOF
