%!PS-Adobe-3.0 EPSF-3.0
%%DocumentNeededResources: font Helvetica
%%+ font Helvetica-Bold
%%+ font Helvetica-Oblique
%%+ font Helvetica-BoldOblique
%%+ font Symbol
%%Title: PI curves at different temperatures
%%Creator: R Software
%%Pages: (atend)
%%BoundingBox: 0 0 720 576
%%EndComments
%%BeginProlog
/bp  { gs sRGB gs } def
% begin .ps.prolog
/gs  { gsave } bind def
/gr  { grestore } bind def
/ep  { showpage gr gr } bind def
/m   { moveto } bind def
/l  { rlineto } bind def
/np  { newpath } bind def
/cp  { closepath } bind def
/f   { fill } bind def
/o   { stroke } bind def
/c   { newpath 0 360 arc } bind def
/r   { 4 2 roll moveto 1 copy 3 -1 roll exch 0 exch rlineto 0 rlineto -1 mul 0 exch rlineto closepath } bind def
/p1  { stroke } bind def
/p2  { gsave bg fill grestore newpath } bind def
/p3  { gsave bg fill grestore stroke } bind def
/p6  { gsave bg eofill grestore newpath } bind def
/p7  { gsave bg eofill grestore stroke } bind def
/t   { 5 -2 roll moveto gsave rotate
       1 index stringwidth pop
       mul neg 0 rmoveto show grestore } bind def
/ta  { 4 -2 roll moveto gsave rotate show } bind def
/tb  { 2 -1 roll 0 rmoveto show } bind def
/cl  { grestore gsave newpath 3 index 3 index moveto 1 index
       4 -1 roll lineto  exch 1 index lineto lineto
       closepath clip newpath } bind def
/rgb { setrgbcolor } bind def
/s   { scalefont setfont } bind def
% end   .ps.prolog
/sRGB { [ /CIEBasedABC
          << /DecodeLMN
               [ { dup 0.03928 le
                        {12.92321 div}
                        {0.055 add 1.055 div 2.4 exp }
                     ifelse
                 } bind dup dup
               ]
             /MatrixLMN [0.412457 0.212673 0.019334
                         0.357576 0.715152 0.119192
                         0.180437 0.072175 0.950301]
             /WhitePoint [0.9505 1.0 1.0890]
           >>
         ] setcolorspace } bind def
/srgb { setcolor } bind def
%%IncludeResource: font Helvetica
/Helvetica findfont
dup length dict begin
  {1 index /FID ne {def} {pop pop} ifelse} forall
  /Encoding ISOLatin1Encoding def
  currentdict
  end
/Font1 exch definefont pop
%%IncludeResource: font Helvetica-Bold
/Helvetica-Bold findfont
dup length dict begin
  {1 index /FID ne {def} {pop pop} ifelse} forall
  /Encoding ISOLatin1Encoding def
  currentdict
  end
/Font2 exch definefont pop
%%IncludeResource: font Helvetica-Oblique
/Helvetica-Oblique findfont
dup length dict begin
  {1 index /FID ne {def} {pop pop} ifelse} forall
  /Encoding ISOLatin1Encoding def
  currentdict
  end
/Font3 exch definefont pop
%%IncludeResource: font Helvetica-BoldOblique
/Helvetica-BoldOblique findfont
dup length dict begin
  {1 index /FID ne {def} {pop pop} ifelse} forall
  /Encoding ISOLatin1Encoding def
  currentdict
  end
/Font4 exch definefont pop
%%IncludeResource: font Symbol
/Symbol findfont
dup length dict begin
  {1 index /FID ne {def} {pop pop} ifelse} forall
  currentdict
  end
/Font5 exch definefont pop
%%EndProlog
%%Page: 1 1
bp
57.60 57.60 705.60 561.60 cl
72.00 72.00 691.20 547.20 cl
0 0 0 srgb
1.50 setlinewidth
[] 0 setdash
1 setlinecap
1 setlinejoin
10.00 setmiterlimit
np
94.93 236.27 m
573.34 0 l
o
np
662.03 232.67 m
6.24 3.60 l
-6.24 3.60 l
o
np
94.93 133.60 m
0 396.00 l
o
np
98.53 523.36 m
-3.60 6.24 l
-3.60 -6.24 l
o
/Font1 findfont 14 s
432.57 485.48 (Satur) 0 ta
-0.140 (ation at Optim) tb
-0.140 (um \(P) tb gr
/Font1 findfont 10 s
590.24 482.92 (m) 0 0 t
598.57 482.92 (a) 0 0 t
604.13 482.92 (x) 0 0 t
/Font5 findfont 14 s
609.13 485.48 ( ) 0 0 t
/Font1 findfont 14 s
612.63 485.48 (\)) 0 0 t
446.50 317.54 (Satur) 0 ta
-0.140 (ation at High \(P) tb gr
/Font1 findfont 10 s
576.31 314.98 (m) 0 0 t
584.64 314.98 (a) 0 0 t
590.20 314.98 (x) 0 0 t
/Font5 findfont 14 s
595.20 317.54 ( ) 0 0 t
/Font1 findfont 14 s
598.70 317.54 (\)) 0 0 t
0 0 1 srgb
2.25 setlinewidth
[] 0 setdash
np
94.93 202.66 m
5.38 11.71 l
5.37 11.21 l
5.38 10.73 l
5.37 10.26 l
5.38 9.82 l
5.37 9.40 l
5.38 8.99 l
5.37 8.61 l
5.38 8.23 l
5.37 7.88 l
5.38 7.54 l
5.37 7.22 l
5.38 6.90 l
5.37 6.61 l
5.38 6.32 l
5.37 6.05 l
5.38 5.79 l
5.37 5.54 l
5.38 5.30 l
5.37 5.08 l
5.38 4.85 l
5.37 4.65 l
5.38 4.44 l
5.37 4.25 l
5.38 4.07 l
5.37 3.90 l
5.38 3.73 l
5.37 3.56 l
5.38 3.42 l
5.37 3.26 l
5.38 3.13 l
5.37 2.99 l
5.38 2.86 l
5.37 2.74 l
5.38 2.62 l
5.37 2.51 l
5.38 2.40 l
5.37 2.29 l
5.38 2.20 l
5.37 2.10 l
5.38 2.01 l
5.37 1.93 l
5.38 1.84 l
5.37 1.77 l
5.38 1.68 l
5.37 1.62 l
5.38 1.54 l
5.37 1.48 l
5.38 1.42 l
5.37 1.35 l
5.38 1.29 l
5.37 1.24 l
5.38 1.19 l
5.37 1.14 l
5.38 1.08 l
5.37 1.04 l
5.38 1.00 l
5.37 0.95 l
5.38 0.91 l
5.37 0.87 l
5.38 0.83 l
5.37 0.80 l
5.38 0.76 l
5.37 0.74 l
5.38 0.69 l
5.37 0.67 l
5.38 0.64 l
5.37 0.62 l
5.38 0.58 l
5.37 0.56 l
5.38 0.54 l
5.37 0.51 l
5.38 0.50 l
5.37 0.47 l
5.38 0.45 l
5.37 0.43 l
5.38 0.41 l
5.37 0.39 l
5.38 0.38 l
5.37 0.36 l
5.38 0.35 l
5.37 0.33 l
5.38 0.32 l
5.37 0.30 l
5.38 0.29 l
5.37 0.28 l
5.38 0.26 l
5.37 0.26 l
5.38 0.24 l
5.37 0.23 l
5.38 0.22 l
5.37 0.22 l
5.38 0.20 l
5.37 0.20 l
5.38 0.18 l
5.37 0.18 l
5.38 0.17 l
5.37 0.17 l
5.38 0.15 l
632.43 471.20 lineto
o
1 0 0 srgb
np
94.93 163.91 m
5.38 6.94 l
5.37 6.60 l
5.38 6.28 l
5.37 5.98 l
5.38 5.68 l
5.37 5.41 l
5.38 5.15 l
5.37 4.89 l
5.38 4.65 l
5.37 4.43 l
5.38 4.22 l
5.37 4.01 l
5.38 3.81 l
5.37 3.63 l
5.38 3.45 l
5.37 3.28 l
5.38 3.12 l
5.37 2.98 l
5.38 2.82 l
5.37 2.69 l
5.38 2.56 l
5.37 2.43 l
5.38 2.32 l
5.37 2.20 l
5.38 2.10 l
5.37 1.99 l
5.38 1.90 l
5.37 1.80 l
5.38 1.72 l
5.37 1.63 l
5.38 1.55 l
5.37 1.48 l
5.38 1.41 l
5.37 1.33 l
5.38 1.28 l
5.37 1.21 l
5.38 1.15 l
5.37 1.09 l
5.38 1.05 l
5.37 0.99 l
5.38 0.94 l
5.37 0.90 l
5.38 0.85 l
5.37 0.81 l
5.38 0.78 l
5.37 0.73 l
5.38 0.70 l
5.37 0.66 l
5.38 0.64 l
5.37 0.60 l
5.38 0.57 l
5.37 0.55 l
5.38 0.51 l
5.37 0.50 l
5.38 0.47 l
5.37 0.44 l
5.38 0.43 l
5.37 0.40 l
5.38 0.39 l
5.37 0.36 l
5.38 0.35 l
5.37 0.33 l
5.38 0.31 l
5.37 0.30 l
5.38 0.29 l
5.37 0.27 l
5.38 0.26 l
5.37 0.24 l
5.38 0.24 l
5.37 0.22 l
5.38 0.21 l
5.37 0.20 l
5.38 0.19 l
5.37 0.18 l
5.38 0.17 l
5.37 0.17 l
5.38 0.16 l
5.37 0.14 l
5.38 0.15 l
5.37 0.13 l
5.38 0.13 l
5.37 0.12 l
5.38 0.12 l
5.37 0.11 l
5.38 0.10 l
5.37 0.10 l
5.38 0.10 l
5.37 0.09 l
5.38 0.08 l
5.37 0.09 l
5.38 0.07 l
5.37 0.08 l
5.38 0.07 l
5.37 0.06 l
5.38 0.07 l
5.37 0.06 l
5.38 0.06 l
5.37 0.05 l
5.38 0.05 l
632.43 305.52 lineto
o
1.50 setlinewidth
[] 0 setdash
np
238.27 162.93 m
-60.20 66.00 l
o
np
195.22 223.48 m
-17.15 5.45 l
3.85 -17.58 l
o
/Font1 findfont 18 s
241.68 144.88 (I) 0 0 t
/Font1 findfont 13 s
246.69 141.59 (c \(High\)) 0 0 t
0 0 1 srgb
np
176.63 162.93 m
-60.20 66.00 l
o
np
133.59 223.48 m
-17.16 5.45 l
3.86 -17.58 l
o
/Font1 findfont 18 s
138.45 144.80 (I) 0 0 t
/Font1 findfont 13 s
143.45 141.50 (c \(Optim) 0 ta
-0.130 (um\)) tb gr
0.00 0.00 720.00 576.00 cl
/Font1 findfont 18 s
0 0 0 srgb
40.32 309.60 (Production \(P\)) .5 90 t
330.59 60.48 (Irr) 0 ta
-0.180 (adiance \(I\)) tb gr
ep
%%Trailer
%%Pages: 1
%%EOF
