%!PS-Adobe-3.0 EPSF-3.0
%%DocumentNeededResources: font Helvetica
%%+ font Helvetica-Bold
%%+ font Helvetica-Oblique
%%+ font Helvetica-BoldOblique
%%+ font Symbol
%%Title: Probability of Survival
%%Creator: R Software
%%Pages: (atend)
%%BoundingBox: 0 0 432 360
%%EndComments
%%BeginProlog
/bp  { gs sRGB gs } def
% begin .ps.prolog
/gs  { gsave } bind def
/gr  { grestore } bind def
/ep  { showpage gr gr } bind def
/m   { moveto } bind def
/l  { rlineto } bind def
/np  { newpath } bind def
/cp  { closepath } bind def
/f   { fill } bind def
/o   { stroke } bind def
/c   { newpath 0 360 arc } bind def
/r   { 4 2 roll moveto 1 copy 3 -1 roll exch 0 exch rlineto 0 rlineto -1 mul 0 exch rlineto closepath } bind def
/p1  { stroke } bind def
/p2  { gsave bg fill grestore newpath } bind def
/p3  { gsave bg fill grestore stroke } bind def
/p6  { gsave bg eofill grestore newpath } bind def
/p7  { gsave bg eofill grestore stroke } bind def
/t   { 5 -2 roll moveto gsave rotate
       1 index stringwidth pop
       mul neg 0 rmoveto show grestore } bind def
/ta  { 4 -2 roll moveto gsave rotate show } bind def
/tb  { 2 -1 roll 0 rmoveto show } bind def
/cl  { grestore gsave newpath 3 index 3 index moveto 1 index
       4 -1 roll lineto  exch 1 index lineto lineto
       closepath clip newpath } bind def
/rgb { setrgbcolor } bind def
/s   { scalefont setfont } bind def
% end   .ps.prolog
/sRGB { [ /CIEBasedABC
          << /DecodeLMN
               [ { dup 0.03928 le
                        {12.92321 div}
                        {0.055 add 1.055 div 2.4 exp }
                     ifelse
                 } bind dup dup
               ]
             /MatrixLMN [0.412457 0.212673 0.019334
                         0.357576 0.715152 0.119192
                         0.180437 0.072175 0.950301]
             /WhitePoint [0.9505 1.0 1.0890]
           >>
         ] setcolorspace } bind def
/srgb { setcolor } bind def
%%IncludeResource: font Helvetica
/Helvetica findfont
dup length dict begin
  {1 index /FID ne {def} {pop pop} ifelse} forall
  /Encoding ISOLatin1Encoding def
  currentdict
  end
/Font1 exch definefont pop
%%IncludeResource: font Helvetica-Bold
/Helvetica-Bold findfont
dup length dict begin
  {1 index /FID ne {def} {pop pop} ifelse} forall
  /Encoding ISOLatin1Encoding def
  currentdict
  end
/Font2 exch definefont pop
%%IncludeResource: font Helvetica-Oblique
/Helvetica-Oblique findfont
dup length dict begin
  {1 index /FID ne {def} {pop pop} ifelse} forall
  /Encoding ISOLatin1Encoding def
  currentdict
  end
/Font3 exch definefont pop
%%IncludeResource: font Helvetica-BoldOblique
/Helvetica-BoldOblique findfont
dup length dict begin
  {1 index /FID ne {def} {pop pop} ifelse} forall
  /Encoding ISOLatin1Encoding def
  currentdict
  end
/Font4 exch definefont pop
%%IncludeResource: font Symbol
/Symbol findfont
dup length dict begin
  {1 index /FID ne {def} {pop pop} ifelse} forall
  currentdict
  end
/Font5 exch definefont pop
%%EndProlog
%%Page: 1 1
bp
0.00 0.00 432.00 360.00 cl
0 0 0 srgb
0.75 setlinewidth
[] 0 setdash
1 setlinecap
1 setlinejoin
10.00 setmiterlimit
np
71.73 73.44 m
317.34 0 l
o
np
71.73 73.44 m
0 -7.20 l
o
np
135.20 73.44 m
0 -7.20 l
o
np
198.67 73.44 m
0 -7.20 l
o
np
262.13 73.44 m
0 -7.20 l
o
np
325.60 73.44 m
0 -7.20 l
o
np
389.07 73.44 m
0 -7.20 l
o
/Font1 findfont 12 s
71.73 47.52 (0) .5 0 t
135.20 47.52 (5) .5 0 t
198.67 47.52 (10) .5 0 t
262.13 47.52 (15) .5 0 t
325.60 47.52 (20) .5 0 t
389.07 47.52 (25) .5 0 t
np
59.04 81.87 m
0 210.66 l
o
np
59.04 81.87 m
-7.20 0 l
o
np
59.04 124.00 m
-7.20 0 l
o
np
59.04 166.13 m
-7.20 0 l
o
np
59.04 208.27 m
-7.20 0 l
o
np
59.04 250.40 m
-7.20 0 l
o
np
59.04 292.53 m
-7.20 0 l
o
41.76 81.87 (0.0) .5 90 t
41.76 124.00 (0.2) .5 90 t
41.76 166.13 (0.4) .5 90 t
41.76 208.27 (0.6) .5 90 t
41.76 250.40 (0.8) .5 90 t
41.76 292.53 (1.0) .5 90 t
0.00 0.00 432.00 360.00 cl
/Font1 findfont 12 s
0 0 0 srgb
230.40 18.72 (Depth) .5 0 t
12.96 130.52 (Probability of sur) 90 ta
0.360 (viv) tb
-0.300 (al) tb gr
59.04 73.44 401.76 300.96 cl
0 0 0 srgb
1.50 setlinewidth
[] 0 setdash
1 setlinecap
1 setlinejoin
10.00 setmiterlimit
np
71.73 88.66 m
3.21 1.05 l
3.20 1.19 l
3.21 1.33 l
3.20 1.48 l
3.21 1.64 l
3.21 1.80 l
3.20 1.97 l
3.21 2.15 l
3.20 2.33 l
3.21 2.51 l
3.20 2.68 l
3.21 2.86 l
3.20 3.02 l
3.21 3.17 l
3.20 3.32 l
3.21 3.44 l
3.20 3.55 l
3.21 3.64 l
3.21 3.72 l
3.20 3.76 l
3.21 3.79 l
3.20 3.80 l
3.21 3.79 l
3.20 3.75 l
3.21 3.70 l
3.20 3.63 l
3.21 3.54 l
3.20 3.43 l
3.21 3.32 l
3.20 3.19 l
3.21 3.06 l
3.21 2.91 l
3.20 2.76 l
3.21 2.61 l
3.20 2.44 l
3.21 2.29 l
3.20 2.12 l
3.21 1.95 l
3.20 1.79 l
3.21 1.63 l
3.20 1.46 l
3.21 1.30 l
3.20 1.14 l
3.21 0.98 l
3.21 0.82 l
3.20 0.67 l
3.21 0.50 l
3.20 0.35 l
3.21 0.20 l
3.20 0.04 l
3.21 -0.12 l
3.20 -0.27 l
3.21 -0.43 l
3.20 -0.58 l
3.21 -0.74 l
3.21 -0.90 l
3.20 -1.06 l
3.21 -1.22 l
3.20 -1.38 l
3.21 -1.54 l
3.20 -1.71 l
3.21 -1.87 l
3.20 -2.04 l
3.21 -2.20 l
3.20 -2.36 l
3.21 -2.52 l
3.20 -2.69 l
3.21 -2.83 l
3.21 -2.98 l
3.20 -3.13 l
3.21 -3.26 l
3.20 -3.37 l
3.21 -3.49 l
3.20 -3.59 l
3.21 -3.66 l
3.20 -3.73 l
3.21 -3.77 l
3.20 -3.80 l
3.21 -3.79 l
3.20 -3.79 l
3.21 -3.74 l
3.21 -3.68 l
3.20 -3.60 l
3.21 -3.50 l
3.20 -3.38 l
3.21 -3.25 l
3.20 -3.10 l
3.21 -2.94 l
3.20 -2.77 l
3.21 -2.60 l
3.20 -2.42 l
3.21 -2.24 l
3.20 -2.06 l
3.21 -1.89 l
3.21 -1.72 l
3.20 -1.56 l
3.21 -1.40 l
3.20 -1.26 l
3.21 -1.12 l
o
1.50 setlinewidth
[ 4.50 7.50] 0 setdash
np
71.73 95.80 m
3.21 1.63 l
3.20 1.78 l
3.21 1.92 l
3.20 2.07 l
3.21 2.22 l
3.21 2.38 l
3.20 2.54 l
3.21 2.69 l
3.20 2.84 l
3.21 2.99 l
3.20 3.14 l
3.21 3.27 l
3.20 3.40 l
3.21 3.52 l
3.20 3.62 l
3.21 3.72 l
3.20 3.80 l
3.21 3.87 l
3.21 3.92 l
3.20 3.95 l
3.21 3.97 l
3.20 3.97 l
3.21 3.94 l
3.20 3.91 l
3.21 3.85 l
3.20 3.77 l
3.21 3.68 l
3.20 3.57 l
3.21 3.45 l
3.20 3.32 l
3.21 3.17 l
3.21 3.02 l
3.20 2.86 l
3.21 2.70 l
3.20 2.53 l
3.21 2.35 l
3.20 2.19 l
3.21 2.02 l
3.20 1.84 l
3.21 1.68 l
3.20 1.52 l
3.21 1.34 l
3.20 1.19 l
3.21 1.03 l
3.21 0.88 l
3.20 0.72 l
3.21 0.57 l
3.20 0.42 l
3.21 0.27 l
3.20 0.13 l
3.21 -0.02 l
3.20 -0.16 l
3.21 -0.30 l
3.20 -0.45 l
3.21 -0.58 l
3.21 -0.74 l
3.20 -0.87 l
3.21 -1.02 l
3.20 -1.16 l
3.21 -1.31 l
3.20 -1.45 l
3.21 -1.60 l
3.20 -1.75 l
3.21 -1.89 l
3.20 -2.04 l
3.21 -2.18 l
3.20 -2.33 l
3.21 -2.47 l
3.21 -2.61 l
3.20 -2.74 l
3.21 -2.88 l
3.20 -3.00 l
3.21 -3.12 l
3.20 -3.24 l
3.21 -3.35 l
3.20 -3.44 l
3.21 -3.53 l
3.20 -3.60 l
3.21 -3.67 l
3.20 -3.72 l
3.21 -3.77 l
3.21 -3.78 l
3.20 -3.79 l
3.21 -3.79 l
3.20 -3.76 l
3.21 -3.73 l
3.20 -3.67 l
3.21 -3.60 l
3.20 -3.52 l
3.21 -3.42 l
3.20 -3.31 l
3.21 -3.19 l
3.20 -3.06 l
3.21 -2.92 l
3.21 -2.77 l
3.20 -2.62 l
3.21 -2.48 l
3.20 -2.31 l
3.21 -2.16 l
o
np
71.73 85.12 m
3.21 0.63 l
3.20 0.73 l
3.21 0.85 l
3.20 0.97 l
3.21 1.11 l
3.21 1.25 l
3.20 1.42 l
3.21 1.58 l
3.20 1.76 l
3.21 1.94 l
3.20 2.12 l
3.21 2.31 l
3.20 2.49 l
3.21 2.67 l
3.20 2.82 l
3.21 2.98 l
3.20 3.11 l
3.21 3.23 l
3.21 3.31 l
3.20 3.39 l
3.21 3.43 l
3.20 3.45 l
3.21 3.45 l
3.20 3.43 l
3.21 3.38 l
3.20 3.31 l
3.21 3.24 l
3.20 3.14 l
3.21 3.03 l
3.20 2.91 l
3.21 2.79 l
3.21 2.65 l
3.20 2.51 l
3.21 2.37 l
3.20 2.23 l
3.21 2.07 l
3.20 1.92 l
3.21 1.77 l
3.20 1.62 l
3.21 1.46 l
3.20 1.32 l
3.21 1.16 l
3.20 1.00 l
3.21 0.85 l
3.21 0.70 l
3.20 0.55 l
3.21 0.40 l
3.20 0.24 l
3.21 0.09 l
3.20 -0.07 l
3.21 -0.22 l
3.20 -0.37 l
3.21 -0.54 l
3.20 -0.69 l
3.21 -0.85 l
3.21 -1.01 l
3.20 -1.18 l
3.21 -1.34 l
3.20 -1.51 l
3.21 -1.67 l
3.20 -1.84 l
3.21 -2.00 l
3.20 -2.17 l
3.21 -2.33 l
3.20 -2.49 l
3.21 -2.65 l
3.20 -2.79 l
3.21 -2.93 l
3.21 -3.06 l
3.20 -3.18 l
3.21 -3.28 l
3.20 -3.37 l
3.21 -3.43 l
3.20 -3.48 l
3.21 -3.50 l
3.20 -3.51 l
3.21 -3.48 l
3.20 -3.43 l
3.21 -3.37 l
3.20 -3.27 l
3.21 -3.16 l
3.21 -3.03 l
3.20 -2.87 l
3.21 -2.72 l
3.20 -2.55 l
3.21 -2.36 l
3.20 -2.19 l
3.21 -2.01 l
3.20 -1.82 l
3.21 -1.65 l
3.20 -1.48 l
3.21 -1.33 l
3.20 -1.17 l
3.21 -1.04 l
3.21 -0.90 l
3.20 -0.79 l
3.21 -0.68 l
3.20 -0.59 l
3.21 -0.51 l
o
ep
%%Trailer
%%Pages: 1
%%EOF
