%!PS-Adobe-3.0 EPSF-3.0
%%DocumentNeededResources: font Helvetica
%%+ font Helvetica-Bold
%%+ font Helvetica-Oblique
%%+ font Helvetica-BoldOblique
%%+ font Symbol
%%Title: Growth with depth
%%Creator: R Software
%%Pages: (atend)
%%BoundingBox: 0 0 720 576
%%EndComments
%%BeginProlog
/bp  { gs sRGB gs } def
% begin .ps.prolog
/gs  { gsave } bind def
/gr  { grestore } bind def
/ep  { showpage gr gr } bind def
/m   { moveto } bind def
/l  { rlineto } bind def
/np  { newpath } bind def
/cp  { closepath } bind def
/f   { fill } bind def
/o   { stroke } bind def
/c   { newpath 0 360 arc } bind def
/r   { 4 2 roll moveto 1 copy 3 -1 roll exch 0 exch rlineto 0 rlineto -1 mul 0 exch rlineto closepath } bind def
/p1  { stroke } bind def
/p2  { gsave bg fill grestore newpath } bind def
/p3  { gsave bg fill grestore stroke } bind def
/p6  { gsave bg eofill grestore newpath } bind def
/p7  { gsave bg eofill grestore stroke } bind def
/t   { 5 -2 roll moveto gsave rotate
       1 index stringwidth pop
       mul neg 0 rmoveto show grestore } bind def
/ta  { 4 -2 roll moveto gsave rotate show } bind def
/tb  { 2 -1 roll 0 rmoveto show } bind def
/cl  { grestore gsave newpath 3 index 3 index moveto 1 index
       4 -1 roll lineto  exch 1 index lineto lineto
       closepath clip newpath } bind def
/rgb { setrgbcolor } bind def
/s   { scalefont setfont } bind def
% end   .ps.prolog
/sRGB { [ /CIEBasedABC
          << /DecodeLMN
               [ { dup 0.03928 le
                        {12.92321 div}
                        {0.055 add 1.055 div 2.4 exp }
                     ifelse
                 } bind dup dup
               ]
             /MatrixLMN [0.412457 0.212673 0.019334
                         0.357576 0.715152 0.119192
                         0.180437 0.072175 0.950301]
             /WhitePoint [0.9505 1.0 1.0890]
           >>
         ] setcolorspace } bind def
/srgb { setcolor } bind def
%%IncludeResource: font Helvetica
/Helvetica findfont
dup length dict begin
  {1 index /FID ne {def} {pop pop} ifelse} forall
  /Encoding ISOLatin1Encoding def
  currentdict
  end
/Font1 exch definefont pop
%%IncludeResource: font Helvetica-Bold
/Helvetica-Bold findfont
dup length dict begin
  {1 index /FID ne {def} {pop pop} ifelse} forall
  /Encoding ISOLatin1Encoding def
  currentdict
  end
/Font2 exch definefont pop
%%IncludeResource: font Helvetica-Oblique
/Helvetica-Oblique findfont
dup length dict begin
  {1 index /FID ne {def} {pop pop} ifelse} forall
  /Encoding ISOLatin1Encoding def
  currentdict
  end
/Font3 exch definefont pop
%%IncludeResource: font Helvetica-BoldOblique
/Helvetica-BoldOblique findfont
dup length dict begin
  {1 index /FID ne {def} {pop pop} ifelse} forall
  /Encoding ISOLatin1Encoding def
  currentdict
  end
/Font4 exch definefont pop
%%IncludeResource: font Symbol
/Symbol findfont
dup length dict begin
  {1 index /FID ne {def} {pop pop} ifelse} forall
  currentdict
  end
/Font5 exch definefont pop
%%EndProlog
%%Page: 1 1
bp
0.00 0.00 720.00 576.00 cl
0 0 0 srgb
0.75 setlinewidth
[] 0 setdash
1 setlinecap
1 setlinejoin
10.00 setmiterlimit
np
112.90 76.03 m
112.41 0 l
o
np
112.90 76.03 m
0 -4.75 l
o
np
150.37 76.03 m
0 -4.75 l
o
np
187.84 76.03 m
0 -4.75 l
o
np
225.31 76.03 m
0 -4.75 l
o
/Font1 findfont 16 s
112.90 58.92 (5) .5 0 t
150.37 58.92 (10) .5 0 t
187.84 58.92 (15) .5 0 t
225.31 58.92 (20) .5 0 t
np
76.03 93.85 m
0 445.33 l
o
np
76.03 93.85 m
-4.75 0 l
o
np
76.03 182.91 m
-4.75 0 l
o
np
76.03 271.98 m
-4.75 0 l
o
np
76.03 361.05 m
-4.75 0 l
o
np
76.03 450.11 m
-4.75 0 l
o
np
76.03 539.18 m
-4.75 0 l
o
66.53 88.10 (0.0) 1 0 t
66.53 177.17 (0.2) 1 0 t
66.53 266.23 (0.4) 1 0 t
66.53 355.30 (0.6) 1 0 t
66.53 444.37 (0.8) 1 0 t
66.53 533.43 (1.0) 1 0 t
57.02 57.02 271.68 566.50 cl
76.03 76.03 262.18 556.99 cl
0 0 0 srgb
1.50 setlinewidth
[] 0 setdash
1 setlinecap
1 setlinejoin
10.00 setmiterlimit
np
82.93 461.22 m
1.72 -1.03 l
1.72 -1.07 l
1.73 -1.13 l
1.72 -1.17 l
1.72 -1.21 l
1.73 -1.26 l
1.72 -1.31 l
1.72 -1.35 l
1.73 -1.40 l
1.72 -1.44 l
1.73 -1.49 l
1.72 -1.53 l
1.72 -1.58 l
1.73 -1.63 l
1.72 -1.67 l
1.72 -1.72 l
1.73 -1.76 l
1.72 -1.81 l
1.72 -1.86 l
1.73 -1.90 l
1.72 -1.95 l
1.72 -1.99 l
1.73 -2.04 l
1.72 -2.08 l
1.73 -2.13 l
1.72 -2.18 l
1.72 -2.22 l
1.73 -2.27 l
1.72 -2.31 l
1.72 -2.36 l
1.73 -2.41 l
1.72 -2.45 l
1.72 -2.49 l
1.73 -2.55 l
1.72 -2.58 l
1.72 -2.64 l
1.73 -2.68 l
1.72 -2.72 l
1.72 -2.77 l
1.73 -2.82 l
1.72 -2.86 l
1.73 -2.91 l
1.72 -2.96 l
1.72 -3.00 l
1.73 -3.04 l
1.72 -3.10 l
1.72 -3.13 l
1.73 -3.19 l
1.72 -3.23 l
1.72 -3.27 l
1.73 -3.32 l
1.72 -3.37 l
1.72 -3.41 l
1.73 -3.46 l
1.72 -3.51 l
1.73 -3.55 l
1.72 -3.59 l
1.72 -3.64 l
1.73 -3.69 l
1.72 -3.73 l
1.72 -3.78 l
1.73 -3.83 l
1.72 -3.87 l
1.72 -3.91 l
1.73 -3.97 l
1.72 -4.00 l
1.72 -4.06 l
1.73 -4.10 l
1.72 -4.14 l
1.73 -4.19 l
1.72 -4.24 l
1.72 -4.28 l
1.73 -4.33 l
1.72 -4.37 l
1.72 -4.42 l
1.73 -4.47 l
1.72 -4.51 l
1.72 -4.56 l
1.73 -4.60 l
1.72 -4.65 l
1.72 -4.70 l
1.73 -4.74 l
1.72 -4.78 l
1.72 -4.84 l
1.73 -4.87 l
1.72 -4.93 l
1.73 -4.97 l
1.72 -5.01 l
1.72 -5.06 l
1.73 -5.11 l
1.72 -5.15 l
1.72 -5.20 l
1.73 -5.25 l
1.72 -5.29 l
1.72 -5.33 l
1.73 -5.39 l
1.72 -5.42 l
1.72 -5.48 l
1.73 -5.52 l
255.28 131.42 lineto
o
1.50 setlinewidth
[ 4.50 7.50] 0 setdash
np
82.93 480.16 m
1.72 -1.04 l
1.72 -1.07 l
1.73 -1.12 l
1.72 -1.17 l
1.72 -1.22 l
1.73 -1.26 l
1.72 -1.30 l
1.72 -1.36 l
1.73 -1.39 l
1.72 -1.45 l
1.73 -1.49 l
1.72 -1.53 l
1.72 -1.58 l
1.73 -1.63 l
1.72 -1.67 l
1.72 -1.72 l
1.73 -1.76 l
1.72 -1.81 l
1.72 -1.86 l
1.73 -1.90 l
1.72 -1.94 l
1.72 -2.00 l
1.73 -2.04 l
1.72 -2.08 l
1.73 -2.13 l
1.72 -2.18 l
1.72 -2.22 l
1.73 -2.27 l
1.72 -2.31 l
1.72 -2.36 l
1.73 -2.40 l
1.72 -2.45 l
1.72 -2.50 l
1.73 -2.54 l
1.72 -2.59 l
1.72 -2.64 l
1.73 -2.68 l
1.72 -2.72 l
1.72 -2.77 l
1.73 -2.82 l
1.72 -2.86 l
1.73 -2.91 l
1.72 -2.96 l
1.72 -3.00 l
1.73 -3.04 l
1.72 -3.09 l
1.72 -3.14 l
1.73 -3.19 l
1.72 -3.22 l
1.72 -3.28 l
1.73 -3.32 l
1.72 -3.37 l
1.72 -3.41 l
1.73 -3.46 l
1.72 -3.50 l
1.73 -3.55 l
1.72 -3.60 l
1.72 -3.64 l
1.73 -3.69 l
1.72 -3.73 l
1.72 -3.78 l
1.73 -3.82 l
1.72 -3.87 l
1.72 -3.92 l
1.73 -3.96 l
1.72 -4.01 l
1.72 -4.05 l
1.73 -4.10 l
1.72 -4.15 l
1.73 -4.19 l
1.72 -4.24 l
1.72 -4.28 l
1.73 -4.33 l
1.72 -4.37 l
1.72 -4.42 l
1.73 -4.47 l
1.72 -4.51 l
1.72 -4.56 l
1.73 -4.60 l
1.72 -4.65 l
1.72 -4.69 l
1.73 -4.75 l
1.72 -4.78 l
1.72 -4.83 l
1.73 -4.88 l
1.72 -4.93 l
1.73 -4.97 l
1.72 -5.01 l
1.72 -5.06 l
1.73 -5.11 l
1.72 -5.15 l
1.72 -5.20 l
1.73 -5.24 l
1.72 -5.29 l
1.72 -5.34 l
1.73 -5.38 l
1.72 -5.43 l
1.72 -5.47 l
1.73 -5.52 l
255.28 150.35 lineto
o
1 0 0 srgb
1.50 setlinewidth
[] 0 setdash
np
82.93 450.11 m
29.97 -44.53 l
o
np
96.73 413.49 m
16.17 -7.91 l
-1.24 17.96 l
o
0.00 0.00 720.00 576.00 cl
/Font1 findfont 18 s
0 0 0 srgb
143.09 511.37 (Spr) 0 ta
0.270 (ing) tb gr
290.69 76.03 476.83 556.99 cl
0.00 0.00 720.00 576.00 cl
0 0 0 srgb
0.75 setlinewidth
[] 0 setdash
1 setlinecap
1 setlinejoin
10.00 setmiterlimit
np
327.56 76.03 m
112.40 0 l
o
np
327.56 76.03 m
0 -4.75 l
o
np
365.03 76.03 m
0 -4.75 l
o
np
402.49 76.03 m
0 -4.75 l
o
np
439.96 76.03 m
0 -4.75 l
o
/Font1 findfont 16 s
327.56 58.92 (5) .5 0 t
365.03 58.92 (10) .5 0 t
402.49 58.92 (15) .5 0 t
439.96 58.92 (20) .5 0 t
np
290.69 93.85 m
0 445.33 l
o
np
290.69 93.85 m
-4.75 0 l
o
np
290.69 182.91 m
-4.75 0 l
o
np
290.69 271.98 m
-4.75 0 l
o
np
290.69 361.05 m
-4.75 0 l
o
np
290.69 450.11 m
-4.75 0 l
o
np
290.69 539.18 m
-4.75 0 l
o
281.18 88.10 (0.0) 1 0 t
281.18 177.17 (0.2) 1 0 t
281.18 266.23 (0.4) 1 0 t
281.18 355.30 (0.6) 1 0 t
281.18 444.37 (0.8) 1 0 t
281.18 533.43 (1.0) 1 0 t
271.68 57.02 486.34 566.50 cl
290.69 76.03 476.83 556.99 cl
0 0 0 srgb
1.50 setlinewidth
[] 0 setdash
1 setlinecap
1 setlinejoin
10.00 setmiterlimit
np
297.58 504.15 m
1.73 -0.59 l
1.72 -0.63 l
1.72 -0.68 l
1.73 -0.73 l
1.72 -0.77 l
1.72 -0.82 l
1.73 -0.86 l
1.72 -0.91 l
1.72 -0.96 l
1.73 -1.00 l
1.72 -1.05 l
1.72 -1.09 l
1.73 -1.14 l
1.72 -1.18 l
1.73 -1.24 l
1.72 -1.27 l
1.72 -1.32 l
1.73 -1.37 l
1.72 -1.41 l
1.72 -1.46 l
1.73 -1.51 l
1.72 -1.55 l
1.72 -1.60 l
1.73 -1.64 l
1.72 -1.69 l
1.72 -1.73 l
1.73 -1.78 l
1.72 -1.83 l
1.73 -1.87 l
1.72 -1.92 l
1.72 -1.96 l
1.73 -2.01 l
1.72 -2.05 l
1.72 -2.11 l
1.73 -2.14 l
1.72 -2.19 l
1.72 -2.24 l
1.73 -2.29 l
1.72 -2.33 l
1.72 -2.37 l
1.73 -2.42 l
1.72 -2.47 l
1.73 -2.51 l
1.72 -2.56 l
1.72 -2.60 l
1.73 -2.65 l
1.72 -2.70 l
1.72 -2.74 l
1.73 -2.79 l
1.72 -2.83 l
1.72 -2.88 l
1.73 -2.93 l
1.72 -2.97 l
1.72 -3.01 l
1.73 -3.07 l
1.72 -3.11 l
1.72 -3.15 l
1.73 -3.20 l
1.72 -3.24 l
1.73 -3.30 l
1.72 -3.33 l
1.72 -3.39 l
1.73 -3.42 l
1.72 -3.48 l
1.72 -3.52 l
1.73 -3.57 l
1.72 -3.61 l
1.72 -3.66 l
1.73 -3.70 l
1.72 -3.75 l
1.72 -3.79 l
1.73 -3.84 l
1.72 -3.89 l
1.73 -3.93 l
1.72 -3.98 l
1.72 -4.03 l
1.73 -4.07 l
1.72 -4.11 l
1.72 -4.16 l
1.73 -4.21 l
1.72 -4.25 l
1.72 -4.30 l
1.73 -4.35 l
1.72 -4.39 l
1.72 -4.43 l
1.73 -4.49 l
1.72 -4.52 l
1.73 -4.58 l
1.72 -4.62 l
1.72 -4.66 l
1.73 -4.71 l
1.72 -4.76 l
1.72 -4.80 l
1.73 -4.85 l
1.72 -4.89 l
1.72 -4.94 l
1.73 -4.99 l
1.72 -5.03 l
1.72 -5.08 l
469.94 218.53 lineto
o
1.50 setlinewidth
[ 4.50 7.50] 0 setdash
np
297.58 523.09 m
1.73 -0.59 l
1.72 -0.64 l
1.72 -0.68 l
1.73 -0.73 l
1.72 -0.77 l
1.72 -0.82 l
1.73 -0.86 l
1.72 -0.91 l
1.72 -0.96 l
1.73 -1.00 l
1.72 -1.05 l
1.72 -1.09 l
1.73 -1.14 l
1.72 -1.18 l
1.73 -1.23 l
1.72 -1.28 l
1.72 -1.32 l
1.73 -1.37 l
1.72 -1.41 l
1.72 -1.46 l
1.73 -1.51 l
1.72 -1.55 l
1.72 -1.59 l
1.73 -1.65 l
1.72 -1.69 l
1.72 -1.73 l
1.73 -1.78 l
1.72 -1.83 l
1.73 -1.87 l
1.72 -1.92 l
1.72 -1.96 l
1.73 -2.01 l
1.72 -2.05 l
1.72 -2.10 l
1.73 -2.15 l
1.72 -2.19 l
1.72 -2.24 l
1.73 -2.28 l
1.72 -2.33 l
1.72 -2.38 l
1.73 -2.42 l
1.72 -2.47 l
1.73 -2.51 l
1.72 -2.56 l
1.72 -2.60 l
1.73 -2.65 l
1.72 -2.70 l
1.72 -2.74 l
1.73 -2.79 l
1.72 -2.83 l
1.72 -2.88 l
1.73 -2.92 l
1.72 -2.98 l
1.72 -3.01 l
1.73 -3.06 l
1.72 -3.11 l
1.72 -3.16 l
1.73 -3.20 l
1.72 -3.24 l
1.73 -3.29 l
1.72 -3.34 l
1.72 -3.38 l
1.73 -3.43 l
1.72 -3.48 l
1.72 -3.52 l
1.73 -3.56 l
1.72 -3.61 l
1.72 -3.66 l
1.73 -3.71 l
1.72 -3.75 l
1.72 -3.79 l
1.73 -3.84 l
1.72 -3.89 l
1.73 -3.93 l
1.72 -3.98 l
1.72 -4.02 l
1.73 -4.07 l
1.72 -4.12 l
1.72 -4.16 l
1.73 -4.21 l
1.72 -4.25 l
1.72 -4.30 l
1.73 -4.34 l
1.72 -4.39 l
1.72 -4.44 l
1.73 -4.48 l
1.72 -4.53 l
1.73 -4.57 l
1.72 -4.62 l
1.72 -4.67 l
1.73 -4.71 l
1.72 -4.76 l
1.72 -4.80 l
1.73 -4.85 l
1.72 -4.89 l
1.72 -4.94 l
1.73 -4.99 l
1.72 -5.03 l
1.72 -5.08 l
469.94 237.46 lineto
o
1 0 0 srgb
1.50 setlinewidth
[] 0 setdash
np
297.58 494.65 m
29.98 -44.54 l
o
np
311.39 458.02 m
16.17 -7.91 l
-1.24 17.96 l
o
0.00 0.00 720.00 576.00 cl
/Font1 findfont 18 s
0 0 0 srgb
383.76 511.37 (Summer) .5 0 t
505.34 76.03 691.49 556.99 cl
0.00 0.00 720.00 576.00 cl
0 0 0 srgb
0.75 setlinewidth
[] 0 setdash
1 setlinecap
1 setlinejoin
10.00 setmiterlimit
np
542.21 76.03 m
112.41 0 l
o
np
542.21 76.03 m
0 -4.75 l
o
np
579.68 76.03 m
0 -4.75 l
o
np
617.15 76.03 m
0 -4.75 l
o
np
654.62 76.03 m
0 -4.75 l
o
/Font1 findfont 16 s
542.21 58.92 (5) .5 0 t
579.68 58.92 (10) .5 0 t
617.15 58.92 (15) .5 0 t
654.62 58.92 (20) .5 0 t
np
505.34 93.85 m
0 445.33 l
o
np
505.34 93.85 m
-4.75 0 l
o
np
505.34 182.91 m
-4.75 0 l
o
np
505.34 271.98 m
-4.75 0 l
o
np
505.34 361.05 m
-4.75 0 l
o
np
505.34 450.11 m
-4.75 0 l
o
np
505.34 539.18 m
-4.75 0 l
o
495.84 88.10 (0.0) 1 0 t
495.84 177.17 (0.2) 1 0 t
495.84 266.23 (0.4) 1 0 t
495.84 355.30 (0.6) 1 0 t
495.84 444.37 (0.8) 1 0 t
495.84 533.43 (1.0) 1 0 t
486.34 57.02 700.99 566.50 cl
505.34 76.03 691.49 556.99 cl
0 0 0 srgb
1.50 setlinewidth
[] 0 setdash
1 setlinecap
1 setlinejoin
10.00 setmiterlimit
np
512.24 166.57 m
1.05 2.01 l
1.05 1.98 l
1.05 1.97 l
1.04 1.95 l
1.05 1.93 l
1.05 1.92 l
1.05 1.90 l
1.05 1.88 l
1.05 1.87 l
1.05 1.85 l
1.05 1.83 l
1.05 1.82 l
1.05 1.80 l
1.05 1.78 l
1.05 1.76 l
1.04 1.75 l
1.05 1.73 l
1.05 1.71 l
1.05 1.70 l
1.05 1.68 l
1.05 1.66 l
1.05 1.65 l
1.05 1.63 l
1.05 1.61 l
1.05 1.60 l
1.05 1.57 l
1.04 1.56 l
1.05 1.55 l
1.05 1.52 l
1.05 1.51 l
1.05 1.50 l
1.05 1.47 l
1.05 1.46 l
1.05 1.45 l
1.05 1.42 l
1.05 1.41 l
1.05 1.39 l
1.04 1.37 l
1.05 1.36 l
1.05 1.34 l
1.05 1.33 l
1.05 1.30 l
1.05 1.29 l
1.05 1.27 l
1.05 1.26 l
1.05 1.24 l
1.05 1.22 l
1.05 1.20 l
1.05 1.19 l
1.04 1.17 l
1.05 1.16 l
1.05 1.13 l
1.05 1.12 l
1.05 1.10 l
1.05 1.09 l
1.05 1.07 l
1.05 1.05 l
1.05 1.04 l
1.05 1.01 l
1.05 1.01 l
1.04 0.98 l
1.05 0.97 l
1.05 0.95 l
1.05 0.93 l
1.05 0.92 l
1.05 0.89 l
1.05 0.89 l
1.05 0.86 l
1.05 0.85 l
1.05 0.83 l
1.05 0.82 l
1.04 0.79 l
1.05 0.78 l
1.05 0.77 l
1.05 0.74 l
1.05 0.73 l
1.05 0.72 l
1.05 0.69 l
1.05 0.68 l
1.05 0.66 l
1.05 0.65 l
1.05 0.62 l
1.05 0.61 l
1.04 0.60 l
1.05 0.57 l
1.05 0.56 l
1.05 0.55 l
1.05 0.52 l
1.05 0.51 l
1.05 0.49 l
1.05 0.48 l
1.05 0.46 l
1.05 0.44 l
1.05 0.42 l
1.04 0.41 l
1.05 0.39 l
1.05 0.37 l
1.05 0.36 l
1.05 0.34 l
617.15 282.79 lineto
o
1.50 setlinewidth
[ 4.50 7.50] 0 setdash
np
512.24 185.51 m
1.05 2.00 l
1.05 1.98 l
1.05 1.97 l
1.04 1.95 l
1.05 1.94 l
1.05 1.91 l
1.05 1.90 l
1.05 1.89 l
1.05 1.86 l
1.05 1.85 l
1.05 1.84 l
1.05 1.81 l
1.05 1.80 l
1.05 1.78 l
1.05 1.77 l
1.04 1.74 l
1.05 1.73 l
1.05 1.72 l
1.05 1.69 l
1.05 1.68 l
1.05 1.67 l
1.05 1.64 l
1.05 1.63 l
1.05 1.61 l
1.05 1.60 l
1.05 1.58 l
1.04 1.56 l
1.05 1.54 l
1.05 1.53 l
1.05 1.51 l
1.05 1.49 l
1.05 1.48 l
1.05 1.46 l
1.05 1.44 l
1.05 1.42 l
1.05 1.41 l
1.05 1.39 l
1.04 1.38 l
1.05 1.35 l
1.05 1.34 l
1.05 1.33 l
1.05 1.30 l
1.05 1.29 l
1.05 1.28 l
1.05 1.25 l
1.05 1.24 l
1.05 1.22 l
1.05 1.21 l
1.05 1.18 l
1.04 1.17 l
1.05 1.16 l
1.05 1.13 l
1.05 1.12 l
1.05 1.11 l
1.05 1.08 l
1.05 1.07 l
1.05 1.05 l
1.05 1.04 l
1.05 1.02 l
1.05 1.00 l
1.04 0.98 l
1.05 0.97 l
1.05 0.95 l
1.05 0.93 l
1.05 0.92 l
1.05 0.90 l
1.05 0.88 l
1.05 0.86 l
1.05 0.85 l
1.05 0.83 l
1.05 0.82 l
1.04 0.80 l
1.05 0.78 l
1.05 0.76 l
1.05 0.75 l
1.05 0.73 l
1.05 0.71 l
1.05 0.69 l
1.05 0.68 l
1.05 0.66 l
1.05 0.65 l
1.05 0.63 l
1.05 0.61 l
1.04 0.59 l
1.05 0.58 l
1.05 0.56 l
1.05 0.54 l
1.05 0.53 l
1.05 0.50 l
1.05 0.50 l
1.05 0.47 l
1.05 0.46 l
1.05 0.44 l
1.05 0.42 l
1.04 0.41 l
1.05 0.39 l
1.05 0.37 l
1.05 0.36 l
1.05 0.34 l
617.15 301.72 lineto
o
0.6039 0.8039 0.1961 srgb
1.50 setlinewidth
[] 0 setdash
np
512.24 227.45 m
29.97 44.53 l
o
np
540.98 254.02 m
1.23 17.96 l
-16.17 -7.91 l
o
0.00 0.00 720.00 576.00 cl
/Font1 findfont 18 s
0 0 0 srgb
583.92 511.37 (F) 0 ta
-0.900 (all) tb gr
379.01 30.41 (Depth \(m\)) .5 0 t
32.26 240.22 (Gro) 90 ta
-0.270 (wth \(% da) tb
-0.540 (y) tb gr
/Font5 findfont 13 s
23.32 358.44 (-) 0 90 t
/Font1 findfont 13 s
23.32 365.58 (1) 0 90 t
/Font5 findfont 18 s
32.26 372.81 ( ) 0 90 t
/Font1 findfont 18 s
32.26 377.31 (\)) 0 90 t
ep
%%Trailer
%%Pages: 1
%%EOF
