%!PS-Adobe-3.0 EPSF-3.0
%%DocumentNeededResources: font Helvetica
%%+ font Helvetica-Bold
%%+ font Helvetica-Oblique
%%+ font Helvetica-BoldOblique
%%+ font Symbol
%%Title: Vekstsyklus
%%Creator: R Software
%%Pages: (atend)
%%BoundingBox: 0 0 720 576
%%EndComments
%%BeginProlog
/bp  { gs sRGB gs } def
% begin .ps.prolog
/gs  { gsave } bind def
/gr  { grestore } bind def
/ep  { showpage gr gr } bind def
/m   { moveto } bind def
/l  { rlineto } bind def
/np  { newpath } bind def
/cp  { closepath } bind def
/f   { fill } bind def
/o   { stroke } bind def
/c   { newpath 0 360 arc } bind def
/r   { 4 2 roll moveto 1 copy 3 -1 roll exch 0 exch rlineto 0 rlineto -1 mul 0 exch rlineto closepath } bind def
/p1  { stroke } bind def
/p2  { gsave bg fill grestore newpath } bind def
/p3  { gsave bg fill grestore stroke } bind def
/p6  { gsave bg eofill grestore newpath } bind def
/p7  { gsave bg eofill grestore stroke } bind def
/t   { 5 -2 roll moveto gsave rotate
       1 index stringwidth pop
       mul neg 0 rmoveto show grestore } bind def
/ta  { 4 -2 roll moveto gsave rotate show } bind def
/tb  { 2 -1 roll 0 rmoveto show } bind def
/cl  { grestore gsave newpath 3 index 3 index moveto 1 index
       4 -1 roll lineto  exch 1 index lineto lineto
       closepath clip newpath } bind def
/rgb { setrgbcolor } bind def
/s   { scalefont setfont } bind def
% end   .ps.prolog
/sRGB { [ /CIEBasedABC
          << /DecodeLMN
               [ { dup 0.03928 le
                        {12.92321 div}
                        {0.055 add 1.055 div 2.4 exp }
                     ifelse
                 } bind dup dup
               ]
             /MatrixLMN [0.412457 0.212673 0.019334
                         0.357576 0.715152 0.119192
                         0.180437 0.072175 0.950301]
             /WhitePoint [0.9505 1.0 1.0890]
           >>
         ] setcolorspace } bind def
/srgb { setcolor } bind def
%%IncludeResource: font Helvetica
/Helvetica findfont
dup length dict begin
  {1 index /FID ne {def} {pop pop} ifelse} forall
  /Encoding ISOLatin1Encoding def
  currentdict
  end
/Font1 exch definefont pop
%%IncludeResource: font Helvetica-Bold
/Helvetica-Bold findfont
dup length dict begin
  {1 index /FID ne {def} {pop pop} ifelse} forall
  /Encoding ISOLatin1Encoding def
  currentdict
  end
/Font2 exch definefont pop
%%IncludeResource: font Helvetica-Oblique
/Helvetica-Oblique findfont
dup length dict begin
  {1 index /FID ne {def} {pop pop} ifelse} forall
  /Encoding ISOLatin1Encoding def
  currentdict
  end
/Font3 exch definefont pop
%%IncludeResource: font Helvetica-BoldOblique
/Helvetica-BoldOblique findfont
dup length dict begin
  {1 index /FID ne {def} {pop pop} ifelse} forall
  /Encoding ISOLatin1Encoding def
  currentdict
  end
/Font4 exch definefont pop
%%IncludeResource: font Symbol
/Symbol findfont
dup length dict begin
  {1 index /FID ne {def} {pop pop} ifelse} forall
  currentdict
  end
/Font5 exch definefont pop
%%EndProlog
%%Page: 1 1
bp
0.00 0.00 720.00 576.00 cl
0.00 0.00 720.00 576.00 cl
0 0 0 srgb
0.75 setlinewidth
[] 0 setdash
1 setlinecap
1 setlinejoin
10.00 setmiterlimit
np
106.67 57.60 m
506.66 0 l
o
np
106.67 57.60 m
0 -7.20 l
o
np
152.73 57.60 m
0 -7.20 l
o
np
198.79 57.60 m
0 -7.20 l
o
np
244.85 57.60 m
0 -7.20 l
o
np
290.91 57.60 m
0 -7.20 l
o
np
336.97 57.60 m
0 -7.20 l
o
np
383.03 57.60 m
0 -7.20 l
o
np
429.09 57.60 m
0 -7.20 l
o
np
475.15 57.60 m
0 -7.20 l
o
np
521.21 57.60 m
0 -7.20 l
o
np
567.27 57.60 m
0 -7.20 l
o
np
613.33 57.60 m
0 -7.20 l
o
/Font1 findfont 14 s
95.38 31.68 (J) 0 ta
-0.280 (an) tb gr
140.67 31.68 (F) 0 ta
-0.420 (eb) tb gr
198.79 31.68 (Mar) .5 0 t
244.85 31.68 (Apr) .5 0 t
277.69 31.68 (Ma) 0 ta
-0.420 (y) tb gr
325.69 31.68 (J) 0 ta
-0.280 (un) tb gr
374.08 31.68 (J) 0 ta
-0.280 (ul) tb gr
416.64 31.68 (A) 0 ta
-0.420 (ug) tb gr
475.15 31.68 (Sep) .5 0 t
521.21 31.68 (Oct) .5 0 t
554.83 31.68 (No) 0 ta
-0.210 (v) tb gr
613.33 31.68 (Dec) .5 0 t
1.50 setlinewidth
[] 0 setdash
np
86.40 76.27 m
0 448.71 l
o
np
86.40 76.27 m
-7.20 0 l
o
np
86.40 166.01 m
-7.20 0 l
o
np
86.40 255.75 m
-7.20 0 l
o
np
86.40 345.50 m
-7.20 0 l
o
np
86.40 435.24 m
-7.20 0 l
o
np
86.40 524.98 m
-7.20 0 l
o
/Font1 findfont 18 s
72.00 69.80 (0.0) 1 0 t
72.00 159.55 (0.5) 1 0 t
72.00 249.29 (1.0) 1 0 t
72.00 339.04 (1.5) 1 0 t
72.00 428.78 (2.0) 1 0 t
72.00 518.52 (2.5) 1 0 t
1 0 0 srgb
np
633.60 76.27 m
0 466.66 l
o
np
633.60 76.27 m
7.20 0 l
o
np
633.60 309.60 m
7.20 0 l
o
np
633.60 542.93 m
7.20 0 l
o
0 0 0 srgb
648.00 69.80 (0%) 0 0 t
648.00 303.14 (50%) 0 0 t
648.00 536.47 (100%) 0 0 t
86.40 57.60 633.60 561.60 cl
0 0 0 srgb
1.50 setlinewidth
[] 0 setdash
1 setlinecap
1 setlinejoin
10.00 setmiterlimit
np
106.67 138.99 m
3.72 3.17 l
3.72 3.65 l
3.72 4.10 l
3.72 4.51 l
3.73 4.90 l
3.72 5.23 l
3.72 5.55 l
3.72 5.82 l
3.73 6.07 l
3.72 6.28 l
3.72 6.45 l
3.72 6.59 l
3.72 6.70 l
3.73 6.73 l
3.72 6.68 l
3.72 6.53 l
3.72 6.29 l
3.72 5.95 l
3.73 5.53 l
3.72 5.00 l
3.72 4.39 l
3.72 3.69 l
3.72 2.88 l
3.73 1.99 l
3.72 1.01 l
3.72 0.02 l
3.72 -0.77 l
3.72 -1.38 l
3.73 -1.78 l
3.72 -1.97 l
3.72 -1.97 l
3.72 -1.76 l
3.72 -1.34 l
3.73 -0.74 l
3.72 0.09 l
3.72 1.09 l
3.72 2.32 l
3.73 3.68 l
3.72 4.83 l
3.72 5.64 l
3.72 6.12 l
3.72 6.24 l
3.73 6.04 l
3.72 5.49 l
3.72 4.61 l
3.72 3.38 l
3.72 1.82 l
3.73 -0.09 l
3.72 -2.33 l
3.72 -4.89 l
3.72 -7.44 l
3.72 -9.64 l
3.73 -11.45 l
3.72 -12.89 l
3.72 -13.97 l
3.72 -14.66 l
3.72 -14.99 l
3.73 -14.93 l
3.72 -14.51 l
3.72 -13.72 l
3.72 -12.54 l
3.72 -11.00 l
3.73 -9.21 l
3.72 -7.53 l
3.72 -6.04 l
3.72 -4.72 l
3.73 -3.58 l
3.72 -2.61 l
3.72 -1.81 l
3.72 -1.20 l
3.72 -0.76 l
3.73 -0.50 l
3.72 -0.42 l
3.72 -0.50 l
3.72 -0.75 l
3.72 -1.03 l
3.73 -1.28 l
3.72 -1.48 l
3.72 -1.64 l
3.72 -1.77 l
3.72 -1.85 l
3.73 -1.90 l
3.72 -1.91 l
3.72 -1.88 l
3.72 -1.81 l
3.72 -1.70 l
3.73 -1.55 l
3.72 -1.39 l
3.72 -1.23 l
3.72 -1.08 l
3.72 -0.95 l
3.73 -0.82 l
3.72 -0.71 l
3.72 -0.60 l
3.72 -0.51 l
3.73 -0.43 l
3.72 -0.35 l
3.72 -0.29 l
3.72 -0.24 l
o
1 0 0 srgb
np
383.03 149.64 m
0 102.52 l
o
np
379.43 149.64 m
3.60 0 l
3.60 0 l
o
np
429.09 227.15 m
0 175.78 l
o
np
425.49 227.15 m
3.60 0 l
3.60 0 l
o
np
475.15 228.53 m
0 283.29 l
o
np
471.55 228.53 m
3.60 0 l
3.60 0 l
o
np
383.03 385.36 m
0 -133.20 l
o
np
386.63 385.36 m
-3.60 0 l
-3.60 0 l
o
np
429.09 505.28 m
0 -102.35 l
o
np
432.69 505.28 m
-3.60 0 l
-3.60 0 l
o
np
475.15 541.78 m
0 -29.96 l
o
np
478.75 541.78 m
-3.60 0 l
-3.60 0 l
o
/bg { 1 0 0 srgb } def
0 0 0 srgb
378.24 247.38 9.57 9.57 r p3
424.31 398.15 9.57 9.57 r p3
470.37 507.04 9.57 9.57 r p3
0.00 0.00 720.00 576.00 cl
/Font1 findfont 18 s
0 0 0 srgb
702.72 250.07 (Epiph) 90 ta
-0.540 (yte co) tb
-0.270 (v) tb
-0.450 (er) tb gr
21.96 187.55 (S. latissima gro) 90 ta
-0.270 (wth \(cm da) tb
-0.540 (y) tb gr
/Font5 findfont 13 s
13.02 406.79 (-) 0 90 t
/Font1 findfont 13 s
13.02 413.93 (1) 0 90 t
/Font5 findfont 18 s
21.96 421.16 ( ) 0 90 t
/Font1 findfont 18 s
21.96 425.66 (\)) 0 90 t
/Font1 findfont 14 s
498.18 146.88 (Death) .5 0 t
86.40 57.60 633.60 561.60 cl
0 0 0 srgb
1.50 setlinewidth
[] 0 setdash
1 setlinecap
1 setlinejoin
10.00 setmiterlimit
np
498.18 139.09 m
0 -62.82 l
o
np
489.18 91.86 m
9.00 -15.59 l
9.00 15.59 l
o
ep
%%Trailer
%%Pages: 1
%%EOF
